<svg width="430" height="383" viewBox="0 0 430 383" fill="none" xmlns="http://www.w3.org/2000/svg">
<g clip-path="url(#clip0)">
<path d="M241.618 67.3064C222.185 67.1925 206.394 76.663 206.321 88.4624C206.284 94.3643 210.189 99.7285 216.532 103.63L208.542 120.985L225.211 107.554C230.436 109.195 235.884 110.033 241.365 110.038C260.799 110.152 276.589 100.676 276.667 88.8771C276.746 77.0777 261.047 67.4204 241.618 67.3064Z" fill="url(#paint0_linear)"/>
<path d="M232.101 46.1871L292.697 45.7314C293.358 45.7242 293.99 45.4588 294.455 44.9929C294.92 44.527 295.181 43.8982 295.18 43.243L294.877 3.19162C294.87 2.53603 294.601 1.90989 294.13 1.44972C293.658 0.989547 293.023 0.732679 292.361 0.735125L231.766 1.19088C231.104 1.19808 230.473 1.46342 230.008 1.92931C229.543 2.39519 229.282 3.02402 229.282 3.67927L229.585 43.7352C229.594 44.3904 229.863 45.0158 230.334 45.4758C230.805 45.9357 231.44 46.1929 232.101 46.1917V46.1871Z" fill="#4C3865"/>
<path d="M293.023 23.0078L312.585 42.719L288.451 38.2663L293.023 23.0078Z" fill="#4C3865"/>
<path d="M253.655 217.672L258.356 223.684L256.056 230.939C256.001 231.125 256.001 231.323 256.056 231.509C256.106 231.697 256.206 231.869 256.346 232.006C256.49 232.138 256.669 232.23 256.861 232.27C257.053 232.31 257.251 232.298 257.436 232.234L264.667 229.64L270.927 234.066C271.087 234.176 271.275 234.241 271.47 234.252C271.664 234.262 271.858 234.219 272.031 234.129C272.201 234.037 272.344 233.902 272.445 233.737C272.542 233.57 272.592 233.379 272.592 233.186L272.339 225.584L278.53 221.063C278.688 220.947 278.81 220.79 278.884 220.608C278.957 220.427 278.978 220.23 278.944 220.038C278.908 219.846 278.819 219.667 278.686 219.523C278.557 219.377 278.387 219.271 278.199 219.217L270.775 217.098L268.346 209.884C268.28 209.706 268.167 209.549 268.02 209.428C267.868 209.303 267.683 209.222 267.487 209.195C267.291 209.169 267.092 209.197 266.911 209.277C266.726 209.355 266.566 209.483 266.451 209.647L262.174 215.936L254.483 215.995C254.287 215.998 254.096 216.055 253.931 216.159C253.764 216.262 253.63 216.411 253.545 216.588C253.456 216.762 253.421 216.959 253.444 217.153C253.464 217.342 253.538 217.522 253.655 217.672V217.672Z" fill="url(#paint1_linear)"/>
<path d="M395.99 41.2421L400.71 47.2443L398.382 54.4999C398.332 54.6865 398.332 54.883 398.382 55.0696C398.432 55.2589 398.534 55.4308 398.677 55.5663C398.82 55.698 398.996 55.7893 399.187 55.8307C399.38 55.8711 399.58 55.8585 399.767 55.7942L406.997 53.201L413.253 57.6263C413.414 57.7352 413.601 57.7997 413.796 57.8132C413.991 57.823 414.185 57.7804 414.357 57.6897C414.53 57.599 414.674 57.4637 414.775 57.2982C414.873 57.1307 414.922 56.94 414.918 56.7467L414.656 49.1311L420.847 44.6101C421.004 44.4936 421.126 44.3358 421.198 44.1547C421.27 43.9735 421.29 43.776 421.255 43.5843C421.22 43.3927 421.132 43.2144 421 43.0696C420.869 42.9247 420.7 42.819 420.511 42.7643L413.124 40.6542L410.695 33.4533C410.63 33.275 410.517 33.1176 410.369 32.9976C410.218 32.8735 410.034 32.7945 409.84 32.7697C409.644 32.7423 409.443 32.7705 409.263 32.8512C409.082 32.9319 408.928 33.0616 408.819 33.2254L404.509 39.5285L396.805 39.5604C396.607 39.5635 396.415 39.6203 396.248 39.7244C396.082 39.829 395.948 39.9773 395.862 40.1529C395.775 40.3274 395.74 40.5227 395.76 40.7161C395.781 40.9096 395.856 41.0935 395.977 41.2467L395.99 41.2421Z" fill="url(#paint2_linear)"/>
<path d="M273.659 294.621L273.075 287.033L266.419 283.223C266.252 283.124 266.115 282.982 266.023 282.813C265.932 282.64 265.89 282.446 265.904 282.252C265.914 282.055 265.981 281.865 266.096 281.704C266.21 281.543 266.369 281.417 266.552 281.341L273.659 278.428L275.273 270.981C275.316 270.793 275.411 270.621 275.549 270.485C275.685 270.345 275.857 270.245 276.046 270.198C276.233 270.147 276.43 270.147 276.616 270.198C276.803 270.255 276.97 270.362 277.099 270.507L282.085 276.291L289.734 275.498C289.93 275.479 290.128 275.514 290.305 275.6C290.482 275.685 290.631 275.818 290.736 275.984C290.84 276.149 290.896 276.34 290.898 276.535C290.899 276.73 290.845 276.922 290.742 277.088L286.717 283.578L289.831 290.529C289.91 290.708 289.937 290.905 289.909 291.098C289.881 291.291 289.799 291.472 289.675 291.622C289.549 291.772 289.383 291.884 289.196 291.946C289.009 292.008 288.809 292.018 288.617 291.973L281.138 290.223L275.416 295.319C275.268 295.446 275.089 295.533 274.896 295.569C274.701 295.6 274.501 295.58 274.317 295.51C274.134 295.437 273.975 295.316 273.857 295.159C273.739 295.003 273.67 294.816 273.659 294.621V294.621Z" fill="url(#paint3_linear)"/>
<path d="M404.716 246.927L404.122 239.343L397.471 235.533C397.301 235.436 397.162 235.292 397.071 235.119C396.98 234.946 396.939 234.752 396.952 234.558C396.966 234.364 397.034 234.178 397.149 234.02C397.268 233.863 397.427 233.741 397.609 233.665L404.72 230.752L406.335 223.305C406.379 223.117 406.472 222.944 406.606 222.804C406.743 222.667 406.914 222.569 407.103 222.522C407.291 222.467 407.49 222.467 407.678 222.522C407.857 222.582 408.016 222.689 408.138 222.831L413.124 228.615L420.773 227.822C420.969 227.803 421.166 227.838 421.343 227.922C421.52 228.009 421.669 228.141 421.776 228.305C421.88 228.471 421.935 228.662 421.935 228.857C421.935 229.051 421.88 229.242 421.776 229.408L417.751 235.898L420.86 242.853C420.943 243.031 420.972 243.228 420.943 243.422C420.915 243.615 420.834 243.796 420.709 243.946C420.588 244.094 420.429 244.206 420.249 244.27C420.062 244.334 419.861 244.343 419.669 244.297L412.204 242.515L406.464 247.633C406.318 247.765 406.138 247.852 405.944 247.884C405.751 247.919 405.552 247.9 405.369 247.829C405.182 247.756 405.021 247.631 404.904 247.469C404.786 247.308 404.718 247.117 404.707 246.918L404.716 246.927Z" fill="url(#paint4_linear)"/>
<path d="M286.17 171.728L288.833 175.169L287.453 179.303C287.423 179.409 287.423 179.52 287.453 179.626C287.474 179.707 287.511 179.782 287.563 179.848C287.615 179.913 287.68 179.967 287.754 180.007C287.828 180.046 287.909 180.07 287.993 180.077C288.076 180.083 288.16 180.073 288.24 180.046L292.379 178.592L295.926 181.139C296.017 181.202 296.123 181.24 296.234 181.249C296.345 181.256 296.457 181.232 296.556 181.18C296.656 181.129 296.74 181.05 296.795 180.953C296.854 180.858 296.883 180.749 296.878 180.638L296.767 176.299L300.314 173.738C300.407 173.673 300.479 173.583 300.521 173.478C300.563 173.374 300.575 173.261 300.557 173.15C300.534 173.041 300.484 172.939 300.41 172.854C300.334 172.772 300.237 172.712 300.13 172.681L295.926 171.455L294.578 167.326C294.541 167.221 294.476 167.128 294.389 167.057C294.305 166.984 294.201 166.937 294.09 166.92C293.979 166.905 293.865 166.921 293.762 166.966C293.659 167.011 293.57 167.083 293.506 167.175L291.013 170.771H286.63C286.517 170.771 286.407 170.803 286.312 170.862C286.215 170.92 286.138 171.006 286.092 171.108C286.04 171.206 286.019 171.317 286.032 171.427C286.047 171.539 286.095 171.644 286.17 171.728Z" fill="url(#paint5_linear)"/>
<path d="M11.0851 91.8395L13.3067 87.0678L10.5884 82.5377C10.518 82.4224 10.4829 82.2894 10.4872 82.1548C10.4879 82.0197 10.5296 81.8879 10.6068 81.7766C10.6785 81.6628 10.7825 81.5724 10.9057 81.5168C11.0291 81.4597 11.166 81.4376 11.3013 81.453L16.5817 82.0773L20.0958 78.126C20.1864 78.024 20.3045 77.9497 20.4361 77.9118C20.5667 77.8732 20.7058 77.8732 20.8363 77.9118C20.9687 77.9462 21.0884 78.0173 21.1813 78.1169C21.2743 78.2147 21.338 78.3362 21.3653 78.4678L22.3956 83.6223L27.2804 85.7097C27.4054 85.764 27.5134 85.8506 27.5932 85.9603C27.6717 86.0717 27.7164 86.2029 27.7219 86.3386C27.7311 86.4754 27.6991 86.6118 27.6299 86.7306C27.563 86.8478 27.4642 86.9442 27.3448 87.0086L22.7084 89.5744L22.2484 94.811C22.2364 94.9462 22.1871 95.0755 22.1058 95.1847C22.0219 95.2909 21.9107 95.3728 21.7838 95.4217C21.6563 95.47 21.5179 95.4826 21.3837 95.4582C21.2498 95.4301 21.126 95.3672 21.0249 95.2759L17.1198 91.7028L11.9084 92.8513C11.7757 92.8825 11.6366 92.8746 11.5083 92.8285C11.3774 92.7847 11.2623 92.7039 11.1771 92.5961C11.0928 92.4907 11.0388 92.3647 11.0207 92.2315C11.0052 92.0974 11.0275 91.9618 11.0851 91.8395V91.8395Z" fill="url(#paint6_linear)"/>
<path d="M79.0033 17.6844L77.4073 12.6711L72.3477 11.1261C72.2174 11.0881 72.1008 11.0137 72.0119 10.9119C71.9236 10.8092 71.8648 10.6848 71.8417 10.5519C71.8214 10.4191 71.8389 10.2833 71.8923 10.1599C71.9427 10.0348 72.0291 9.927 72.1407 9.85002L76.4736 6.79193L76.3862 1.53713C76.3853 1.40182 76.4222 1.2689 76.4928 1.15308C76.5635 1.03726 76.665 0.943044 76.7863 0.880851C76.9075 0.821378 77.0424 0.794651 77.1773 0.803372C77.3137 0.815226 77.4442 0.864111 77.5545 0.944655L81.8229 4.0711L86.8549 2.3666C86.9847 2.32035 87.1254 2.31243 87.2597 2.34381C87.3593 2.36637 87.453 2.4095 87.5346 2.47038C87.6163 2.53126 87.6841 2.60853 87.7336 2.69712C87.7831 2.78572 87.8131 2.88367 87.8218 2.98456C87.8305 3.08545 87.8176 3.18703 87.784 3.28266L86.0913 8.26857L89.2881 12.4706C89.3701 12.5777 89.4196 12.7058 89.4307 12.8397C89.4434 12.9746 89.4179 13.1104 89.3571 13.2317C89.2932 13.3502 89.1998 13.4507 89.0857 13.5234C88.9684 13.5912 88.8352 13.6273 88.6993 13.6282L83.3546 13.5826L80.2958 17.8895C80.2181 18.0001 80.1094 18.0856 79.9831 18.1356C79.8569 18.1886 79.7184 18.206 79.5829 18.1857C79.449 18.162 79.3237 18.1038 79.2195 18.0171C79.1167 17.929 79.0417 17.8135 79.0033 17.6844V17.6844Z" fill="url(#paint7_linear)"/>
<path d="M216.55 165.922L227.12 173.679L229.631 169.085L235.96 173.492L239.378 166.906L247.694 172.407L249.644 167.895L239.534 161.383L235.339 168.187L229.006 163.639L225.947 168.793L218.528 163.579L216.55 165.922Z" fill="#4C3865"/>
<path d="M132.083 165.293L124.986 176.267L120.993 172.854L116.656 179.202L111.099 174.258L105.299 182.324L101.854 178.792L108.97 169.144L115.331 174.025L119.618 167.549L124.328 171.291L129.392 163.798L132.083 165.293Z" fill="url(#paint8_linear)"/>
<path d="M136.31 121.491C135.721 126.085 140.546 129.726 144.837 129.439C149.584 129.125 153.609 125.269 154.303 120.648C155.053 115.634 152.004 111.647 147.33 111.282C142.763 110.922 139.842 114.951 141.162 119.03C142.105 121.942 144.791 123.031 146.144 122.22C147.197 121.596 147.133 120.014 145.859 119.736C145.609 119.694 145.352 119.725 145.119 119.824C144.887 119.924 144.688 120.088 144.548 120.297C143.43 119.841 142.367 117.84 143.09 115.666C144.01 112.886 147.556 112.727 149.759 114.021C152.565 115.671 153.025 119.217 151.976 122.051C151.414 123.552 150.438 124.866 149.16 125.844C147.882 126.823 146.353 127.427 144.745 127.589C142.99 127.697 141.262 127.12 139.931 125.981C138.6 124.842 137.772 123.232 137.625 121.495C137.626 121.41 137.609 121.325 137.576 121.246C137.543 121.167 137.495 121.095 137.434 121.034C137.311 120.911 137.144 120.842 136.97 120.841C136.883 120.841 136.798 120.858 136.718 120.89C136.638 120.923 136.565 120.97 136.504 121.031C136.38 121.152 136.31 121.318 136.31 121.491V121.491Z" fill="#4C3865"/>
<path d="M404.987 134.949C404.178 141.289 410.843 146.343 416.771 145.928C423.326 145.472 428.887 140.163 429.844 133.782C430.883 126.873 426.693 121.35 420.212 120.844C413.906 120.351 409.867 125.912 411.689 131.526C412.995 135.555 416.707 137.055 418.588 135.943C420.042 135.077 419.968 132.894 418.193 132.511C417.848 132.456 417.495 132.499 417.174 132.635C416.853 132.772 416.578 132.996 416.381 133.281C414.84 132.675 413.372 129.89 414.366 126.901C415.64 123.063 420.539 122.84 423.565 124.622C427.438 126.901 428.05 131.809 426.628 135.719C425.138 139.821 421.068 143.062 416.638 143.371C414.213 143.523 411.825 142.727 409.986 141.154C408.147 139.581 407.003 137.357 406.8 134.958C406.763 134.747 406.653 134.555 406.488 134.416C406.323 134.277 406.114 134.201 405.897 134.199C405.681 134.198 405.471 134.273 405.304 134.41C405.138 134.547 405.026 134.738 404.987 134.949Z" fill="#4C3865"/>
<path d="M234.484 319.815C233.67 326.159 240.339 331.209 246.268 330.794C252.823 330.338 258.384 325.029 259.34 318.648C260.38 311.739 256.19 306.215 249.709 305.71C243.398 305.217 239.364 310.782 241.186 316.392C242.492 320.421 246.199 321.921 248.085 320.809C249.539 319.943 249.465 317.76 247.69 317.377C247.345 317.322 246.991 317.365 246.671 317.501C246.35 317.637 246.075 317.862 245.877 318.147C244.336 317.541 242.865 314.756 243.863 311.767C245.137 307.929 250.035 307.706 253.062 309.488C256.935 311.767 257.542 316.675 256.125 320.585C254.63 324.687 250.564 327.927 246.13 328.237C243.702 328.394 241.309 327.599 239.467 326.025C237.624 324.451 236.479 322.222 236.278 319.82C236.232 319.618 236.119 319.438 235.956 319.309C235.793 319.18 235.591 319.109 235.383 319.108C235.174 319.108 234.972 319.178 234.809 319.306C234.645 319.434 234.531 319.614 234.484 319.815Z" fill="#4C3865"/>
<path d="M251.687 86.6761L246.673 85.6917C246.673 85.6917 241.085 85.1038 240.234 80.3139C239.953 78.6868 241.071 75.2049 240.096 74.7719C239.334 74.3968 238.455 74.3322 237.645 74.592C236.836 74.8519 236.162 75.4155 235.768 76.162C234.82 77.7343 235.607 83.4859 235.022 83.8687C234.659 84.1103 231.803 84.1422 229.71 84.1285C229.035 84.1228 228.372 84.3009 227.793 84.6433C227.214 84.9857 226.741 85.4792 226.426 86.07V86.07C226.212 86.4624 226.141 86.9159 226.224 87.3541C226.308 87.7923 226.542 88.1886 226.886 88.4764L227.999 89.3879L227.125 90.5364C226.968 90.7402 226.853 90.9727 226.787 91.2207C226.72 91.4687 226.705 91.7272 226.74 91.9813C226.775 92.2354 226.86 92.4802 226.991 92.7015C227.122 92.9228 227.295 93.1163 227.502 93.2709L228.376 93.9317L227.778 94.6108C227.596 94.8167 227.46 95.0582 227.379 95.3196C227.297 95.581 227.272 95.8565 227.305 96.1281C227.338 96.3998 227.428 96.6615 227.57 96.8963C227.712 97.1311 227.902 97.3338 228.128 97.4911L228.905 98.0289L228.79 98.2431C228.554 98.6709 228.49 99.1709 228.609 99.6437C228.728 100.117 229.023 100.528 229.434 100.795L230.216 101.31L243.458 101.543C244.7 101.564 245.933 101.334 247.083 100.868L251.751 100.185C251.994 100.149 252.216 100.028 252.377 99.8441C252.539 99.6603 252.628 99.4254 252.63 99.1819L252.657 87.697C252.659 87.4359 252.559 87.1842 252.378 86.9941C252.198 86.8041 251.95 86.6902 251.687 86.6761V86.6761Z" fill="white"/>
<path d="M274.165 26.8859L273.227 27.5286V35.053L274.165 35.6956L280.577 40.1027V22.4834L274.165 26.8859Z" fill="#D7D3E2"/>
<path d="M271.52 21.4077H246.42C245.478 21.4077 244.714 22.1647 244.714 23.0985V39.4873C244.714 40.4212 245.478 41.1782 246.42 41.1782H271.52C272.463 41.1782 273.227 40.4212 273.227 39.4873V23.0985C273.227 22.1647 272.463 21.4077 271.52 21.4077Z" fill="url(#paint9_linear)"/>
<path d="M271.479 13.218C271.48 14.3314 271.147 15.42 270.524 16.3462C269.9 17.2724 269.013 17.9946 267.975 18.4213C266.937 18.848 265.795 18.9601 264.693 18.7434C263.591 18.5268 262.578 17.9911 261.783 17.2041C260.988 16.4171 260.447 15.4142 260.227 14.3223C260.008 13.2303 260.12 12.0984 260.55 11.0696C260.979 10.0409 261.708 9.16156 262.642 8.54289C263.576 7.92422 264.675 7.594 265.798 7.594C266.544 7.5934 267.283 7.73842 267.972 8.02079C268.661 8.30315 269.287 8.71731 269.815 9.2396C270.342 9.7619 270.761 10.3821 271.046 11.0647C271.332 11.7473 271.479 12.479 271.479 13.218V13.218Z" fill="url(#paint10_radial)"/>
<path d="M265.798 5.03296C264.161 5.03296 262.56 5.51409 261.198 6.4155C259.837 7.31691 258.776 8.59813 258.149 10.0971C257.522 11.5961 257.358 13.2456 257.678 14.8369C257.997 16.4282 258.786 17.8899 259.944 19.0372C261.102 20.1845 262.577 20.9658 264.183 21.2824C265.789 21.5989 267.454 21.4364 268.966 20.8155C270.479 20.1946 271.772 19.1432 272.682 17.7941C273.592 16.445 274.077 14.859 274.077 13.2365C274.077 12.1592 273.863 11.0924 273.447 10.0971C273.031 9.10183 272.421 8.19748 271.652 7.43571C270.884 6.67394 269.971 6.06968 268.966 5.65741C267.962 5.24515 266.885 5.03296 265.798 5.03296V5.03296ZM261.226 15.4696C260.779 15.4696 260.343 15.3384 259.971 15.0925C259.6 14.8466 259.311 14.4971 259.14 14.0883C258.969 13.6794 258.924 13.2294 259.011 12.7954C259.098 12.3613 259.313 11.9625 259.629 11.6496C259.945 11.3366 260.347 11.1235 260.785 11.0372C261.224 10.9508 261.678 10.9951 262.09 11.1645C262.503 11.3339 262.856 11.6207 263.104 11.9887C263.352 12.3567 263.485 12.7893 263.485 13.2319C263.485 13.8254 263.247 14.3946 262.823 14.8142C262.4 15.2339 261.825 15.4696 261.226 15.4696V15.4696ZM265.784 6.44579C266.231 6.44579 266.668 6.57703 267.039 6.82291C267.41 7.0688 267.7 7.41828 267.871 7.82718C268.042 8.23607 268.086 8.686 267.999 9.12008C267.912 9.55416 267.697 9.95288 267.381 10.2658C267.065 10.5788 266.663 10.7919 266.225 10.8783C265.787 10.9646 265.333 10.9203 264.92 10.7509C264.507 10.5815 264.155 10.2947 263.907 9.92674C263.658 9.55875 263.526 9.1261 263.526 8.68352C263.526 8.38966 263.584 8.09867 263.698 7.82718C263.811 7.55568 263.978 7.309 264.187 7.1012C264.397 6.89341 264.646 6.72858 264.92 6.61612C265.194 6.50367 265.488 6.44579 265.784 6.44579V6.44579ZM265.812 19.9907C265.365 19.9898 264.929 19.8578 264.558 19.6114C264.188 19.3649 263.899 19.0151 263.729 18.6061C263.558 18.1972 263.514 17.7474 263.602 17.3136C263.69 16.8798 263.905 16.4815 264.221 16.169C264.537 15.8565 264.94 15.6439 265.378 15.5579C265.816 15.4719 266.269 15.5165 266.682 15.686C267.094 15.8555 267.447 16.1423 267.695 16.5102C267.943 16.8781 268.075 17.3106 268.075 17.753C268.075 18.0472 268.016 18.3386 267.903 18.6104C267.789 18.8821 267.622 19.129 267.412 19.3369C267.202 19.5447 266.952 19.7095 266.678 19.8217C266.403 19.9339 266.109 19.9913 265.812 19.9907V19.9907ZM270.375 15.4332C269.928 15.4323 269.492 15.3003 269.121 15.0538C268.751 14.8074 268.462 14.4576 268.292 14.0486C268.121 13.6397 268.077 13.1899 268.165 12.7561C268.253 12.3223 268.468 11.924 268.784 11.6115C269.1 11.299 269.502 11.0864 269.94 11.0004C270.378 10.9144 270.832 10.959 271.245 11.1285C271.657 11.298 272.009 11.5848 272.257 11.9527C272.505 12.3206 272.638 12.7531 272.638 13.1955C272.639 13.4905 272.581 13.7828 272.468 14.0556C272.355 14.3285 272.188 14.5765 271.978 14.7853C271.768 14.9941 271.518 15.1597 271.243 15.2724C270.967 15.3852 270.672 15.4429 270.375 15.4423V15.4332Z" fill="url(#paint11_linear)"/>
<path d="M254.933 15.6229C255.482 13.3123 254.036 10.9988 251.704 10.4556C249.372 9.9124 247.037 11.3451 246.489 13.6557C245.941 15.9663 247.386 18.2797 249.718 18.8229C252.05 19.3662 254.385 17.9334 254.933 15.6229Z" fill="url(#paint12_radial)"/>
<path d="M250.711 7.87232C249.36 7.87141 248.039 8.26758 246.915 9.0107C245.792 9.75381 244.915 10.8105 244.398 12.0471C243.88 13.2837 243.744 14.6446 244.007 15.9578C244.27 17.2709 244.92 18.4773 245.875 19.4242C246.83 20.3712 248.048 21.0162 249.373 21.2777C250.698 21.5392 252.071 21.4055 253.32 20.8934C254.568 20.3813 255.635 19.5138 256.386 18.4007C257.137 17.2877 257.537 15.979 257.537 14.6402C257.537 12.846 256.818 11.1253 255.538 9.8562C254.258 8.5871 252.522 7.87352 250.711 7.87232ZM246.926 16.4997C246.557 16.4997 246.196 16.3912 245.889 16.1878C245.581 15.9845 245.342 15.6955 245.201 15.3574C245.059 15.0193 245.022 14.6473 245.094 14.2883C245.167 13.9294 245.344 13.5997 245.606 13.3409C245.867 13.0822 246.199 12.9059 246.562 12.8345C246.924 12.7631 247.299 12.7998 247.641 12.9398C247.982 13.0799 248.274 13.317 248.479 13.6213C248.684 13.9256 248.793 14.2834 248.793 14.6493C248.797 14.8933 248.751 15.1356 248.659 15.3618C248.566 15.5879 248.429 15.7934 248.255 15.9659C248.081 16.1385 247.873 16.2747 247.645 16.3663C247.417 16.458 247.172 16.5034 246.926 16.4997ZM250.698 9.02536C251.067 9.02536 251.428 9.13389 251.735 9.3372C252.042 9.54052 252.282 9.82951 252.423 10.1676C252.564 10.5057 252.601 10.8778 252.529 11.2367C252.457 11.5956 252.279 11.9253 252.018 12.1841C251.757 12.4429 251.424 12.6191 251.062 12.6905C250.7 12.7619 250.324 12.7253 249.983 12.5852C249.642 12.4452 249.35 12.208 249.145 11.9037C248.94 11.5994 248.83 11.2417 248.83 10.8757C248.83 10.385 249.027 9.91433 249.377 9.56732C249.727 9.22031 250.202 9.02536 250.698 9.02536V9.02536ZM250.698 20.2186C250.328 20.2186 249.967 20.1101 249.66 19.9068C249.353 19.7034 249.114 19.4145 248.972 19.0763C248.831 18.7382 248.794 18.3662 248.866 18.0073C248.938 17.6483 249.116 17.3186 249.377 17.0599C249.638 16.8011 249.971 16.6249 250.333 16.5535C250.696 16.4821 251.071 16.5187 251.412 16.6588C251.754 16.7988 252.045 17.036 252.25 17.3403C252.456 17.6445 252.565 18.0023 252.565 18.3683C252.57 18.8582 252.379 19.3301 252.033 19.6804C251.687 20.0307 251.215 20.2308 250.721 20.2368L250.698 20.2186ZM254.469 16.4587C254.1 16.4587 253.739 16.3501 253.432 16.1468C253.125 15.9435 252.885 15.6545 252.744 15.3164C252.603 14.9783 252.566 14.6063 252.638 14.2473C252.71 13.8884 252.888 13.5587 253.149 13.2999C253.41 13.0411 253.743 12.8649 254.105 12.7935C254.467 12.7221 254.843 12.7588 255.184 12.8988C255.525 13.0389 255.817 13.276 256.022 13.5803C256.227 13.8846 256.337 14.2423 256.337 14.6083C256.342 15.0983 256.15 15.5702 255.805 15.9205C255.459 16.2708 254.987 16.4709 254.492 16.4769L254.469 16.4587Z" fill="url(#paint13_linear)"/>
<path d="M257.537 25.5508H248.126V37.7695H257.537V25.5508Z" fill="#D7D3E2"/>
<path d="M270.499 28.1257H261.093V35.1944H270.499V28.1257Z" fill="#D7D3E2"/>
<path d="M151.3 200.842H140.417V269.118H151.3V200.842Z" fill="url(#paint14_linear)"/>
<path d="M210.019 200.842H199.136V269.118H210.019V200.842Z" fill="url(#paint15_linear)"/>
<path d="M213.33 206.757H137.105V253.235H213.33V206.757Z" fill="#4C3865"/>
<path d="M225.114 276.551C225.114 277.524 224.921 278.488 224.545 279.388C224.169 280.287 223.617 281.104 222.922 281.792C222.227 282.481 221.402 283.026 220.494 283.399C219.586 283.771 218.613 283.962 217.631 283.961H132.786C130.806 283.956 128.908 283.174 127.51 281.784C126.111 280.395 125.326 278.513 125.326 276.551C125.323 275.577 125.513 274.613 125.887 273.712C126.26 272.812 126.809 271.993 127.502 271.302C128.194 270.612 129.018 270.064 129.925 269.689C130.831 269.314 131.804 269.12 132.786 269.117H217.631C218.615 269.117 219.59 269.309 220.5 269.682C221.409 270.056 222.235 270.604 222.93 271.294C223.626 271.985 224.177 272.805 224.551 273.707C224.926 274.609 225.117 275.575 225.114 276.551V276.551Z" fill="#4C3865"/>
<path d="M213.469 283.943H134.355C130.215 283.943 128.665 269.117 132.796 269.117H217.631C221.766 269.117 217.604 283.943 213.469 283.943Z" fill="#372751"/>
<path d="M213.468 361.544H198.938L136.968 283.948H151.498L213.468 361.544Z" fill="#261942"/>
<path d="M136.968 361.544H151.498L213.468 283.948H198.938L136.968 361.544Z" fill="#261942"/>
<path d="M175.218 216.77L179.555 225.479L189.251 226.869L182.237 233.656L183.893 243.222L175.218 238.705L166.543 243.222L168.199 233.656L161.18 226.869L170.881 225.479L175.218 216.77Z" fill="white"/>
<path d="M224.139 238.619H213.33V248.08V252.902L227.286 273.411H238.095V259.127L224.139 238.619Z" fill="url(#paint16_linear)"/>
<path d="M238.095 259.127H227.286V273.406H238.095V259.127Z" fill="url(#paint17_linear)"/>
<path d="M126.158 238.619H136.967V248.08V252.902L123.012 273.411H112.203V259.127L126.158 238.619Z" fill="url(#paint18_linear)"/>
<path d="M123.012 259.127H112.203V273.406H123.012V259.127Z" fill="url(#paint19_linear)"/>
<path d="M127.299 210.417C127.299 210.417 144.249 204.036 153.49 197.897C162.73 191.758 147.699 181.212 147.699 181.212C147.699 181.212 138.532 189.926 127.792 200.354C127.792 200.354 118.997 212.048 127.221 210.207" fill="#DD8E82"/>
<path d="M182.587 171.527C179.036 171.527 174.537 174.38 169.781 175.629C167.44 176.249 157.96 178.077 155.95 178.71C155.95 178.71 156.498 186.809 156.498 195.892C156.498 199.196 155.343 204.095 155.343 208.247C155.343 217.845 164.326 220.347 164.478 231.491C165.09 239.576 159.529 260.258 159.529 260.258L209.453 259.2C209.453 259.2 199.541 234.653 205.074 215.407C209.651 199.492 208.294 177.99 208.294 177.99C208.294 177.99 206.969 175.957 195.001 173.92C189.422 172.986 188.244 171.518 182.587 171.527Z" fill="url(#paint20_linear)"/>
<path d="M140.459 205.33C140.459 205.33 157.859 196.311 161.617 191.635C165.375 186.959 166.189 177.133 157.813 178.368C148.021 179.813 134.024 188.914 133.435 190.14C133.412 190.14 139.755 202.965 140.459 205.33Z" fill="url(#paint21_linear)"/>
<path d="M213.989 206.474C213.989 206.474 211.486 195.787 208.823 190.414C206.16 185.041 225.161 192.278 225.492 193.604C224.643 196.453 223.172 199.082 221.184 201.306C219.196 203.53 216.74 205.294 213.989 206.474V206.474Z" fill="#BABABA"/>
<path d="M223.569 192.036C223.569 192.036 235.901 204.342 237.198 214.427C238.495 224.513 207.944 241.458 204.591 246.18C203.538 250.227 191.588 249.074 191.441 248.59C191.11 247.465 192.586 246.822 197.131 246.717L194.564 246.07C194.331 246.015 194.088 246.015 193.856 246.07C192.365 246.366 186.653 247.437 186.363 246.64C186.073 245.842 190.456 243.327 192.043 242.21C192.48 241.899 193.017 241.759 193.552 241.818C196.107 242.056 198.672 242.159 201.238 242.128C201.238 242.128 219.476 220.06 224.112 216.059C227.907 212.782 212.401 201.475 212.401 201.475L223.569 192.036Z" fill="url(#paint22_linear)"/>
<path d="M213.989 206.474C213.989 206.474 198.759 194.361 196.096 189.001C193.433 183.641 194.256 174.59 202.692 175.506C211.128 176.422 225.161 192.291 225.492 193.618C225.492 193.604 217.268 197.546 213.989 206.474Z" fill="url(#paint23_linear)"/>
<path d="M192.039 173.323C192.039 173.323 188.29 171.883 188.925 163.347L177.237 161.948C177.237 161.948 178.286 170.096 174.731 173.888C174.731 173.888 174.294 179.252 180.328 183.5C180.328 183.5 189.247 179.895 192.039 173.323Z" fill="url(#paint24_linear)"/>
<path d="M189.229 168.911C188.836 167.083 188.733 165.206 188.925 163.347L177.237 161.948C177.237 161.948 178.157 167.927 175.922 172.17C175.858 172.288 179.565 174.85 182.573 174.358C184.551 174.029 187.021 171.35 189.229 168.911Z" fill="#E8A39C"/>
<path d="M151.282 166.715C150.78 164.673 150.049 161.619 149.782 160.266C149.364 158.133 151.594 160.084 152.657 165.279C152.657 165.279 150.642 157.076 151.033 155.913C151.424 154.751 153.678 158.962 154.138 162.326C154.598 165.689 152.993 153.922 153.356 153.343C153.356 153.343 153.991 150.39 156.576 161.592C156.576 161.592 156.245 156.902 156.981 155.248C157.716 153.594 158.466 160.763 158.613 162.194C159.027 166.15 160.95 165.657 162.79 164.445C164.63 163.233 166.861 164.413 160.104 168.784C160.104 168.784 158.448 170.074 156.171 173.487C153.894 176.901 137.437 204.086 134.346 206.866C131.255 209.646 126.007 212.035 123.744 210.143C121.826 208.534 121.568 200.249 134.024 188.235C134.024 188.235 150.123 172.804 151.134 170.311C151.595 169.163 151.647 167.895 151.282 166.715V166.715Z" fill="url(#paint25_linear)"/>
<path d="M169.45 150.253C169.45 150.253 170.315 160.129 171.424 162.531C172.532 164.933 176.529 171.154 181.354 171.454C183.327 171.578 185.222 170.315 189.574 167.394C191.805 165.89 193.782 161.861 193.939 160.557C193.939 160.557 194.987 145.951 194.661 141.352C194.334 136.754 185.922 130.925 179.28 134.452C172.638 137.98 169.179 143.016 169.45 150.253Z" fill="url(#paint26_linear)"/>
<path d="M193.902 181.18C195.061 172.234 192.747 171.723 191.998 169.062C191.248 166.4 193.736 161.373 193.736 161.373L196.648 148.94L192.076 138.002L185.498 129.667C189.137 123.227 197.338 126.089 197.338 126.089C207.705 131.458 207.457 143.166 206.468 148.53C205.479 153.894 199.969 160.444 198.161 162.08C196.353 163.716 194.242 166.523 194.721 168.825C195.199 171.126 196.018 171.842 196.206 174.449C196.395 177.056 194.164 182.374 194.164 182.374L193.902 181.18Z" fill="#473765"/>
<path d="M203.423 132.123C203.423 132.123 206.983 133.805 207.526 137.333C208.068 140.86 206.569 144.625 206.21 144.962L206.445 143.271C206.445 143.271 209.205 135.3 203.772 132.921L203.423 132.123Z" fill="#473765"/>
<path d="M205.668 150.048C205.668 150.048 206.675 156.16 201.569 157.718L200.327 159.272C200.327 159.272 208.092 157.231 206.109 148.64L205.668 150.048Z" fill="#473765"/>
<path d="M184.155 129.895L185.498 129.649C185.614 129.143 185.918 128.698 186.349 128.404C186.349 128.404 198.938 129.393 201.068 141.781C203.198 154.168 193.962 159.938 193.962 159.938L194.514 158.055C194.514 158.055 200.769 154.615 198.281 142.318C196.478 133.445 183.957 130.291 184.155 129.895Z" fill="#DA4771"/>
<path d="M193.313 156.848C193.313 156.848 195.893 155.025 196.381 154.879C196.869 154.733 197.88 154.478 197.88 155.635C197.88 156.793 198.032 158.789 196.409 159.915C194.785 161.041 194.422 161.282 193.005 161.369C191.588 161.455 193.313 156.848 193.313 156.848Z" fill="url(#paint27_linear)"/>
<path d="M185.498 138.873C185.498 138.873 173.944 139.707 169.588 150.522C169.588 150.522 170.315 158.52 171.161 161.802C172.008 165.083 171.966 167.312 170.265 170.42C168.563 173.528 169.492 174.253 169.805 176.399C169.951 177.967 169.828 179.548 169.441 181.075C169.441 181.075 169.786 178.241 169.271 176.436C168.756 174.631 168.006 173.141 169.271 170.684C170.536 168.228 170.849 167.544 170.77 166.815C170.77 166.815 167.33 170.151 167.795 174.403C167.795 174.403 165.582 172.835 165.738 168.077C165.895 163.319 167.04 163.479 165.738 160.448C165.738 160.448 156.484 146.725 168.3 135.222C168.3 135.222 176.782 126.846 188.208 130.856C188.208 130.856 189.068 131.312 189.105 132.037C189.105 132.037 191.027 131.617 192.214 132.233C193.401 132.848 199.872 135.774 198.971 146.962C198.971 146.962 198.704 152.509 196.85 154.765C196.591 154.817 196.339 154.901 196.101 155.016C195.838 155.166 194.1 156.305 194.1 156.305C194.1 156.305 194.587 149.132 194.56 147.163C194.532 145.194 191.524 142.364 185.498 138.873Z" fill="#473765"/>
<path d="M189.095 132.037C189.095 132.037 184.955 126.381 174.455 130.086C171.609 131.344 169.333 133.6 168.066 136.421C168.066 136.421 171.819 130.642 177.757 129.767C183.695 128.892 186.036 129.521 187.508 131.134L189.095 132.037Z" fill="#473765"/>
<path d="M180.867 158.219C180.867 158.219 180.301 159.587 180.867 159.97C181.432 160.352 182.624 159.97 182.624 159.97C183.24 159.637 181.083 161.232 180.457 160.138C180.016 159.373 180.867 158.219 180.867 158.219Z" fill="#F59B91"/>
<path d="M186.851 153.904C187.364 153.904 187.78 153.492 187.78 152.983C187.78 152.475 187.364 152.062 186.851 152.062C186.338 152.062 185.922 152.475 185.922 152.983C185.922 153.492 186.338 153.904 186.851 153.904Z" fill="#493764"/>
<path d="M175.94 153.717C176.453 153.717 176.869 153.305 176.869 152.796C176.869 152.288 176.453 151.875 175.94 151.875C175.427 151.875 175.011 152.288 175.011 152.796C175.011 153.305 175.427 153.717 175.94 153.717Z" fill="#493764"/>
<path d="M178.668 163.98C178.249 164.217 180.084 165.667 182.113 165.53C183.93 165.407 185.498 163.73 185.103 163.611C183.654 163.169 179.275 163.616 178.668 163.98Z" fill="#CA537D"/>
<path d="M177.173 148.284C177.173 148.284 172.955 148.585 171.653 149.296C171.276 149.492 170.956 149.781 170.725 150.136C170.493 150.49 170.358 150.898 170.333 151.319C170.502 150.973 170.742 150.666 171.038 150.418C171.335 150.169 171.681 149.986 172.054 149.879C172.877 149.711 177.357 149.46 177.49 149.396C177.624 149.332 178.139 148.608 177.173 148.284Z" fill="#493764"/>
<path d="M185.77 148.458C185.77 148.458 190.535 149.004 192.03 149.802C192.446 149.995 192.805 150.292 193.072 150.663C193.339 151.035 193.504 151.468 193.552 151.921C193.345 151.546 193.065 151.216 192.728 150.949C192.39 150.682 192.003 150.484 191.588 150.367C190.668 150.153 185.609 149.638 185.443 149.56C185.277 149.483 184.684 148.726 185.77 148.458Z" fill="#493764"/>
<path d="M184.302 335.115L182.568 345.847C182.072 348.937 181.428 351.872 180.659 353.354C178.599 357.314 180.765 364.036 180.876 364.962C180.986 365.887 185.208 367.204 191.915 366.411C198.621 365.618 198.524 363.904 197.986 361.133C197.448 358.362 193.847 354.807 193.649 352.169C193.451 349.53 195.705 340.037 195.705 340.037L184.302 335.115Z" fill="url(#paint28_linear)"/>
<path d="M168.595 247.383C168.595 247.383 138.205 245.236 131.416 250.459C124.627 255.682 132.644 266.41 132.644 266.41C132.644 266.41 157.39 280.083 198.805 283.118C208.616 283.838 209.458 250.619 207.627 247.87C205.796 245.122 168.595 247.383 168.595 247.383Z" fill="url(#paint29_linear)"/>
<path d="M192.77 367.523C199.67 366.707 198.837 362.966 198.29 360.099C197.94 358.317 195.53 356.211 194.339 354.22C193.718 354.762 193.147 355.724 190.144 356.704C187.021 357.724 183.024 355.482 180.305 354.22C178.332 358.394 179.013 363.535 179.1 364.31C179.192 365.263 185.852 368.339 192.77 367.523Z" fill="url(#paint30_linear)"/>
<path d="M189.33 275.01C189.261 302.059 182.6 345.651 182.6 345.651L194.311 346.677C194.311 346.677 214.315 271.127 213.395 259.524C212.475 247.92 205.755 246.945 205.755 246.945C205.755 246.945 189.412 243.923 189.33 275.01Z" fill="url(#paint31_linear)"/>
<path d="M142.906 344.913C142.906 344.913 144.286 349.872 141.797 353.149C139.309 356.425 128.877 359.648 127.511 361.425C126.145 363.202 126.246 364.711 126.246 364.711L155.477 363.822L155.159 354.069L153.812 347.06L142.906 344.913Z" fill="url(#paint32_linear)"/>
<path d="M139.985 354.771C139.985 354.771 147.496 358.13 151.121 356.138C154.745 354.147 154.639 353.6 155.693 354.343C156.746 355.086 157.114 364.228 157.114 364.228L124.245 365.294C121.945 365.235 120.8 363.376 122.667 361.79C123.794 360.908 124.993 360.12 126.251 359.433C128.817 357.802 139.985 354.771 139.985 354.771Z" fill="url(#paint33_linear)"/>
<path d="M145.666 257.382C143.909 252.122 139.907 245.286 132.87 249.411C126.159 253.339 124.36 262.997 126.472 272.882C128.583 282.767 142.777 340.903 143.26 348.892L154.184 348.997C154.184 348.997 152.119 302.966 151.622 291.846C151.185 281.145 148.715 266.474 145.666 257.382Z" fill="url(#paint34_linear)"/>
<path d="M333.79 340.543L334.65 355.778L349.751 358.467L352.248 355.733C352.248 355.733 352.051 337.193 352.823 328.269L333.79 340.543Z" fill="#FFC5C3"/>
<path d="M369.101 343.947C370.89 358.467 374.303 362.943 374.303 362.943L385.664 367.108L394.675 363.599C394.675 363.599 380.95 336.149 379.101 327.381C379.101 327.358 368.512 339.153 369.101 343.947Z" fill="#FFC5C3"/>
<path d="M319.894 268.174C322.024 304.716 325.414 312.605 328.882 350.255C328.882 350.255 343.974 352.597 354.893 351.558C354.893 351.558 353.081 309.078 360.758 270.252C365.904 244.238 368.034 213.284 366.194 199.306C361.595 164.368 324.163 192.397 324.163 192.397C324.163 192.397 318.708 247.839 319.894 268.174Z" fill="url(#paint35_linear)"/>
<path d="M339.245 265.476C341.379 302.018 349.429 314.483 362.307 352.684H393.401C393.401 352.684 379.413 313.366 380.113 267.554C380.513 241.048 387.385 210.585 385.545 196.608C380.95 161.665 336.149 189.502 336.149 189.502C336.149 189.502 338.058 245.131 339.245 265.476Z" fill="url(#paint36_linear)"/>
<path d="M352.225 355.756C352.225 355.756 353.007 362.925 354.065 371.57C354.902 378.406 344.438 375.467 336.761 375.831C329.351 376.182 308.06 376.561 305.705 377.08C305.705 377.08 304.978 370.914 319.016 364.998C321.655 363.908 324.39 363.06 327.185 362.464C330.221 361.79 335.133 360.035 334.636 355.778C340.449 356.858 346.415 356.85 352.225 355.756V355.756Z" fill="url(#paint37_linear)"/>
<path d="M396.244 382.367C407.784 381.214 404.711 375.198 402.812 372.126C401.487 369.702 395.65 362.938 393.521 361.243C393.521 361.243 394.206 362.642 394.441 363.111C393.281 363.863 391.405 364.825 387.881 365.8C383.075 367.131 377.141 361.931 372.703 359.725C372.454 359.269 372.565 359.178 372.321 358.718C370.9 360.24 371.728 366.197 372.229 368.179C373.471 373.129 377.095 374.747 378.443 375.863C381.263 378.037 387.109 383.561 396.244 382.367Z" fill="url(#paint38_linear)"/>
<path d="M319.766 197.989C321.633 187.374 322.857 158.967 320.538 148.795C319.862 145.842 309.453 115.069 307.715 88.3988C307.715 88.3988 305.548 76.2485 349.571 77.4334C349.571 77.4334 353.582 80.569 355.275 81.5352C356.967 82.5014 379.556 91.507 382.159 101.898C384.763 112.289 387.771 117.676 388.489 130.187C389.73 151.826 387.205 182.689 389.565 206.912C389.565 206.912 383.751 205.253 371.166 203.799C358.582 202.346 338.914 205.454 336.485 208.188C336.485 208.188 338.247 199.415 336.527 197.756C336.527 197.756 333.22 205.909 333.22 207.158C333.22 208.407 312.894 212.472 310.792 210.604C313.152 209.309 315.185 207.501 316.739 205.316C318.294 203.131 319.328 200.626 319.766 197.989Z" fill="url(#paint39_linear)"/>
<path d="M318.887 128.66C318.887 128.66 310.681 133.094 309.094 134.944C307.508 136.795 296.317 144.337 291.092 149.296C291.092 149.296 255.214 168.839 277.15 123.277C277.15 123.277 309.278 97.1444 313.386 93.8174C317.493 90.4904 323.459 115.812 318.887 128.66Z" fill="url(#paint40_linear)"/>
<path d="M374.501 154.068C374.501 154.068 374.441 154.296 374.409 154.405C373.388 158.256 372.712 161.378 371.125 163.064C367.215 167.207 359.079 164.837 356.167 162.672C348.969 157.331 344.328 153.913 333.33 135.223C322.332 116.532 325.911 116.3 321.261 115.065C321.261 115.065 311.601 111.314 307.724 102.873C303.846 94.4329 306.891 93.5168 306.891 93.5168C306.891 93.5168 349.387 138.818 358.283 145.928C358.412 146.033 381.419 103.411 381.419 103.411C391.432 106.333 380.03 133.445 374.501 154.068Z" fill="#E6D0DB"/>
<path d="M381.626 100.335C381.626 100.335 365.421 94.5194 358.664 115.443C358.664 115.443 355.307 127.748 353.338 131.084C353.338 131.084 339.539 147.651 360.541 158.534C360.541 158.534 368.871 168.237 374.363 147.523C379.855 126.809 391.694 103.288 381.626 100.335Z" fill="url(#paint41_linear)"/>
<path d="M300.581 143.977C300.581 143.977 291.138 150.9 283.654 153.042C283.654 153.042 276.295 121.805 278.548 118.478C280.802 115.151 291.211 108.752 291.211 108.752C291.211 108.752 301.05 132.242 300.581 143.977Z" fill="#DCE5EC"/>
<path d="M351.972 131.672C351.972 131.672 368.586 130.975 367.459 145.832C367.459 145.832 365.978 157.463 362.74 161.1C362.74 161.1 369.639 161.665 372.316 155.595C374.993 149.524 380.402 124.708 354.295 128.117L351.972 131.672Z" fill="#DCE5EC"/>
<path d="M353.168 106.446C353.168 106.446 357.105 89.5516 355.716 81.7673C355.716 81.7673 357.529 93.2659 353.877 107.772C353.877 107.772 346.342 108.606 342.755 106.305C342.755 106.305 336.692 106.063 334.655 108.347C334.655 108.347 333.155 104.701 330.975 103.999L330.078 101.634C330.078 101.634 334.793 105.521 334.719 106.934C334.719 106.934 344.153 105.457 344.838 101.943C344.861 101.943 348.803 105.749 353.168 106.446Z" fill="#E6D0DB"/>
<path d="M349.806 83.4221C349.806 83.4221 344.553 101.379 332.327 103.653C332.327 103.653 328.358 99.4554 328.707 93.8178C329.057 88.1802 349.806 83.4221 349.806 83.4221Z" fill="url(#paint42_linear)"/>
<path d="M329.241 126.153C330.507 132.155 332.087 138.088 333.974 143.927C336.701 151.967 335.584 162.686 335.584 162.686C335.584 162.686 336.692 151.598 335.809 145.313C334.926 139.028 332.506 139.47 329.241 126.153Z" fill="#E6D0DB"/>
<path d="M336.149 176.928C336.149 176.928 337.561 194.374 336.527 197.733C336.55 197.733 339.125 188.659 336.149 176.928Z" fill="#E6D0DB"/>
<path d="M307.112 102.874C304.292 109.254 299.136 123.519 297.595 127.411C295.756 132.037 289.482 149.178 283.562 152.227C279.698 154.214 273.208 154.168 272.182 153.243C271.157 152.318 266.493 149.451 268.636 140.582C270.78 131.714 274.979 123.67 282.72 114.605C290.461 105.54 299.136 97.5413 300.047 95.3127C300.889 93.2527 297.669 81.8316 297.692 78.7416C297.692 75.5012 300.654 69.417 302.356 67.6578C304.407 65.534 315.884 65.9122 316.431 66.3634C316.978 66.8146 310.116 79.17 307.503 80.1225C307.503 80.1225 304.444 81.2756 306.496 89.6933C306.496 89.6933 308.708 88.6815 310.254 85.4229C311.799 82.1643 316.311 81.9455 307.112 102.874Z" fill="url(#paint43_linear)"/>
<path d="M320.483 71.007C322.323 72.83 326.398 76.868 323.096 80.122C319.793 83.3761 315.704 79.3382 313.897 77.5334C313.414 77.1169 313.023 76.6064 312.747 76.0336C312.472 75.4609 312.318 74.8382 312.296 74.2041C312.274 73.5701 312.384 72.9384 312.619 72.3482C312.853 71.758 313.208 71.2219 313.661 70.7733C314.114 70.3248 314.655 69.9732 315.25 69.7406C315.846 69.508 316.483 69.3993 317.123 69.4212C317.763 69.4431 318.392 69.5952 318.97 69.868C319.548 70.1409 320.063 70.5285 320.483 71.007V71.007Z" fill="url(#paint44_linear)"/>
<path d="M350.496 71.007C348.656 72.83 344.581 76.868 347.883 80.122C351.186 83.3761 355.275 79.3382 357.083 77.5334C357.565 77.1169 357.957 76.6064 358.232 76.0336C358.507 75.4609 358.661 74.8382 358.683 74.2041C358.705 73.5701 358.595 72.9384 358.361 72.3482C358.126 71.758 357.771 71.2219 357.318 70.7733C356.866 70.3248 356.325 69.9732 355.729 69.7406C355.133 69.508 354.496 69.3993 353.856 69.4212C353.216 69.4431 352.588 69.5952 352.01 69.868C351.432 70.1409 350.916 70.5285 350.496 71.007Z" fill="url(#paint45_linear)"/>
<path d="M354.286 64.0479C354.286 74.3479 352.547 97.4863 335.46 97.4863C318.372 97.4863 316.633 74.3479 316.633 64.0479C316.633 59.1006 318.617 54.3559 322.147 50.8576C325.678 47.3594 330.467 45.394 335.46 45.394C340.453 45.394 345.241 47.3594 348.772 50.8576C352.302 54.3559 354.286 59.1006 354.286 64.0479V64.0479Z" fill="url(#paint46_linear)"/>
<path d="M327.843 72.0874C328.859 72.0874 329.683 71.2712 329.683 70.2644C329.683 69.2576 328.859 68.4414 327.843 68.4414C326.827 68.4414 326.003 69.2576 326.003 70.2644C326.003 71.2712 326.827 72.0874 327.843 72.0874Z" fill="#493764"/>
<path d="M342.865 72.0874C343.881 72.0874 344.705 71.2712 344.705 70.2644C344.705 69.2576 343.881 68.4414 342.865 68.4414C341.849 68.4414 341.025 69.2576 341.025 70.2644C341.025 71.2712 341.849 72.0874 342.865 72.0874Z" fill="#493764"/>
<path d="M343.237 70.1689C343.103 70.2134 342.964 70.2454 342.824 70.2646C342.964 70.2838 343.103 70.3158 343.237 70.3603L344.254 70.7249C344.306 70.739 344.353 70.7656 344.392 70.8024C344.418 70.8296 344.433 70.8653 344.433 70.9027V71.4177L341.536 70.4105V70.1233L344.433 69.1116V69.6402C344.433 69.6776 344.418 69.7133 344.392 69.7405C344.353 69.7773 344.306 69.804 344.254 69.818L343.237 70.1689Z" fill="#493764"/>
<path d="M333.179 65.1327C333.179 65.1327 328.579 63.5786 323.979 64.7772C323.979 64.7772 322.567 65.0643 322.737 67.4798C323.441 66.9568 324.28 66.6408 325.157 66.5683C327.721 66.6066 330.281 66.8045 332.82 67.1608C333.059 67.261 333.79 66.3313 333.179 65.1327Z" fill="#493764"/>
<path d="M337.764 65.1327C337.764 65.1327 342.364 63.5786 346.963 64.7772C346.963 64.7772 348.376 65.0643 348.205 67.4798C347.503 66.9573 346.666 66.6414 345.791 66.5683C343.225 66.6064 340.664 66.8043 338.123 67.1608C337.884 67.261 337.152 66.3313 337.764 65.1327Z" fill="#493764"/>
<path d="M337.369 77.8435C337.369 77.8435 335.142 79.0604 333.077 77.8435C333.077 77.8435 335.138 80.9107 337.369 77.8435Z" fill="#493764"/>
<path d="M352.938 74.4527C352.938 74.4527 349.567 54.7689 344.434 56.5782C341.26 57.6948 339.613 58.3465 335.46 58.3465C331.173 58.3465 329.236 57.6492 326.007 56.4643C321.049 54.6413 318.064 74.6943 318.064 74.6943C315.971 71.2488 315.787 63.697 315.787 63.697C315.787 61.1373 316.296 58.6025 317.285 56.2376C318.273 53.8727 319.722 51.7238 321.549 49.9138C323.376 48.1038 325.545 46.6679 327.931 45.6884C330.318 44.7088 332.876 44.2046 335.46 44.2046C338.043 44.2046 340.601 44.7088 342.988 45.6884C345.375 46.6679 347.544 48.1038 349.37 49.9138C351.197 51.7238 352.646 53.8727 353.635 56.2376C354.623 58.6025 355.132 61.1373 355.132 63.697C355.081 66.4722 354.669 69.2292 353.909 71.9005C353.649 72.7736 353.324 73.6266 352.938 74.4527V74.4527Z" fill="#473765"/>
<path d="M330.193 87.2867L344.452 83.8367C344.452 83.8367 341.209 97.1765 330.193 87.2867Z" fill="#CA537D"/>
<path d="M338.849 86.2336H322.042C321.723 86.2324 321.417 86.1062 321.192 85.8826C320.966 85.6589 320.839 85.3559 320.837 85.0395V74.4433C320.837 74.1267 320.964 73.8229 321.19 73.599C321.416 73.3751 321.723 73.2493 322.042 73.2493H338.849C339.008 73.2487 339.165 73.2791 339.312 73.3389C339.459 73.3986 339.592 73.4865 339.705 73.5974C339.817 73.7083 339.906 73.8402 339.967 73.9853C340.028 74.1305 340.059 74.2861 340.059 74.4433V85.0395C340.058 85.3566 339.93 85.6604 339.703 85.8842C339.476 86.108 339.17 86.2336 338.849 86.2336V86.2336ZM322.042 73.6959C321.842 73.6959 321.651 73.7747 321.509 73.9148C321.368 74.055 321.288 74.2451 321.288 74.4433V85.0395C321.289 85.2374 321.369 85.4268 321.51 85.5667C321.652 85.7067 321.843 85.7858 322.042 85.787H338.849C339.05 85.787 339.242 85.7084 339.385 85.5683C339.527 85.4283 339.607 85.2382 339.608 85.0395V74.4433C339.608 74.3448 339.589 74.2472 339.551 74.1563C339.512 74.0653 339.456 73.9827 339.386 73.9132C339.315 73.8437 339.232 73.7888 339.14 73.7515C339.048 73.7142 338.949 73.6953 338.849 73.6959H322.042Z" fill="#B5B6BA"/>
<path d="M338.619 73.4724H322.263C321.598 73.4724 321.058 74.007 321.058 74.6665V84.8206C321.058 85.4801 321.598 86.0147 322.263 86.0147H338.619C339.285 86.0147 339.825 85.4801 339.825 84.8206V74.6665C339.825 74.007 339.285 73.4724 338.619 73.4724Z" fill="url(#paint47_linear)"/>
<path d="M319.48 95.1299H306.707C306.341 95.1299 305.99 94.9859 305.732 94.7295C305.473 94.4731 305.327 94.1253 305.327 93.7627V71.1666C305.335 70.8087 305.483 70.4679 305.741 70.2174C305.999 69.9669 306.346 69.8266 306.707 69.8267H319.48C319.842 69.8266 320.188 69.9669 320.446 70.2174C320.704 70.4679 320.853 70.8087 320.86 71.1666V93.7946C320.852 94.1516 320.703 94.4913 320.445 94.7408C320.187 94.9904 319.841 95.13 319.48 95.1299ZM306.707 70.4146C306.506 70.4146 306.313 70.4938 306.171 70.6348C306.028 70.7759 305.948 70.9671 305.948 71.1666V93.7946C305.948 93.8937 305.967 93.992 306.005 94.0838C306.043 94.1755 306.098 94.259 306.169 94.3293C306.24 94.3996 306.323 94.4554 306.416 94.4935C306.508 94.5315 306.607 94.5511 306.707 94.5511H319.48C319.58 94.5511 319.68 94.5315 319.772 94.4935C319.864 94.4554 319.948 94.3996 320.019 94.3293C320.089 94.259 320.145 94.1755 320.183 94.0838C320.221 93.992 320.24 93.8937 320.239 93.7946V71.1666C320.239 70.9671 320.159 70.7759 320.017 70.6348C319.875 70.4938 319.682 70.4146 319.48 70.4146H306.707Z" fill="url(#paint48_linear)"/>
<path d="M319.186 70.123H306.992C306.248 70.123 305.645 70.7209 305.645 71.4584V93.5031C305.645 94.2405 306.248 94.8384 306.992 94.8384H319.186C319.93 94.8384 320.534 94.2405 320.534 93.5031V71.4584C320.534 70.7209 319.93 70.123 319.186 70.123Z" fill="url(#paint49_linear)"/>
<path d="M311.693 90.4766H305.93C305.453 90.4766 305.065 90.8602 305.065 91.3334V91.3835C305.065 91.8567 305.453 92.2403 305.93 92.2403H311.693C312.171 92.2403 312.558 91.8567 312.558 91.3835V91.3334C312.558 90.8602 312.171 90.4766 311.693 90.4766Z" fill="url(#paint50_linear)"/>
<path d="M311.693 90.6316H305.935C305.541 90.6316 305.222 90.9479 305.222 91.338V91.3745C305.222 91.7646 305.541 92.0809 305.935 92.0809H311.693C312.087 92.0809 312.406 91.7646 312.406 91.3745V91.338C312.406 90.9479 312.087 90.6316 311.693 90.6316Z" fill="url(#paint51_linear)"/>
<path d="M313.092 88.1431C317.618 88.1431 321.288 84.507 321.288 80.0216C321.288 75.5363 317.618 71.9001 313.092 71.9001C308.565 71.9001 304.895 75.5363 304.895 80.0216C304.895 84.507 308.565 88.1431 313.092 88.1431Z" fill="url(#paint52_linear)"/>
<path d="M313.092 87.8515C317.456 87.8515 320.994 84.346 320.994 80.0217C320.994 75.6974 317.456 72.1919 313.092 72.1919C308.727 72.1919 305.189 75.6974 305.189 80.0217C305.189 84.346 308.727 87.8515 313.092 87.8515Z" fill="#535456"/>
<path d="M313.091 87.4005C317.204 87.4005 320.538 84.097 320.538 80.0219C320.538 75.9468 317.204 72.6433 313.091 72.6433C308.979 72.6433 305.645 75.9468 305.645 80.0219C305.645 84.097 308.979 87.4005 313.091 87.4005Z" fill="#67686A"/>
<path d="M307.462 72.2514C307.944 72.2514 308.336 71.8637 308.336 71.3855C308.336 70.9072 307.944 70.5195 307.462 70.5195C306.979 70.5195 306.588 70.9072 306.588 71.3855C306.588 71.8637 306.979 72.2514 307.462 72.2514Z" fill="#E7E5E6"/>
<path d="M307.462 72.0736C307.845 72.0736 308.156 71.7655 308.156 71.3854C308.156 71.0054 307.845 70.6973 307.462 70.6973C307.078 70.6973 306.767 71.0054 306.767 71.3854C306.767 71.7655 307.078 72.0736 307.462 72.0736Z" fill="#BF1E2E"/>
<path d="M313.092 73.2859C311.742 73.2859 310.424 73.6823 309.302 74.4249C308.18 75.1676 307.306 76.2232 306.79 77.4582C306.273 78.6932 306.138 80.0522 306.401 81.3632C306.665 82.6743 307.314 83.8786 308.268 84.8238C309.222 85.7691 310.438 86.4128 311.761 86.6736C313.084 86.9344 314.455 86.8005 315.702 86.289C316.948 85.7774 318.014 84.9111 318.763 83.7996C319.513 82.6882 319.913 81.3814 319.913 80.0447C319.913 79.1569 319.737 78.2778 319.395 77.4575C319.052 76.6372 318.55 75.8919 317.916 75.2642C317.283 74.6364 316.53 74.1386 315.703 73.7992C314.875 73.4597 313.987 73.2853 313.092 73.2859ZM313.092 85.8145C311.939 85.8145 310.812 85.4757 309.853 84.841C308.895 84.2063 308.148 83.3042 307.707 82.2488C307.266 81.1934 307.151 80.0322 307.376 78.9119C307.601 77.7917 308.157 76.7628 308.972 75.9554C309.788 75.148 310.827 74.5984 311.957 74.3761C313.088 74.1539 314.26 74.2689 315.325 74.7066C316.39 75.1444 317.3 75.8852 317.939 76.8354C318.579 77.7856 318.92 78.9024 318.919 80.0447C318.913 81.5718 318.296 83.0342 317.204 84.1114C316.112 85.1887 314.633 85.7929 313.092 85.7917V85.8145Z" fill="#333335"/>
<path d="M313.092 85.2904C316.028 85.2904 318.409 82.9316 318.409 80.0219C318.409 77.1122 316.028 74.7534 313.092 74.7534C310.155 74.7534 307.774 77.1122 307.774 80.0219C307.774 82.9316 310.155 85.2904 313.092 85.2904Z" fill="#333335"/>
<path d="M315.792 77.5288H310.396C309.903 77.5288 309.504 77.9247 309.504 78.413V81.6306C309.504 82.1189 309.903 82.5147 310.396 82.5147H315.792C316.284 82.5147 316.684 82.1189 316.684 81.6306V78.413C316.684 77.9247 316.284 77.5288 315.792 77.5288Z" fill="#0A0A0A"/>
<path d="M315.681 77.6155H310.502C310.017 77.6155 309.623 78.0052 309.623 78.486V81.5623C309.623 82.043 310.017 82.4328 310.502 82.4328H315.681C316.166 82.4328 316.56 82.043 316.56 81.5623V78.486C316.56 78.0052 316.166 77.6155 315.681 77.6155Z" fill="#1C1C1C"/>
<path d="M313.091 81.4984C313.914 81.4984 314.582 80.8373 314.582 80.0218C314.582 79.2063 313.914 78.5452 313.091 78.5452C312.268 78.5452 311.601 79.2063 311.601 80.0218C311.601 80.8373 312.268 81.4984 313.091 81.4984Z" fill="#A1A2A6"/>
<path d="M313.091 80.8558C313.556 80.8558 313.933 80.4824 313.933 80.0218C313.933 79.5612 313.556 79.1877 313.091 79.1877C312.627 79.1877 312.25 79.5612 312.25 80.0218C312.25 80.4824 312.627 80.8558 313.091 80.8558Z" fill="#0A0A0A"/>
<path d="M314.439 80.0993C315.021 80.0993 315.492 79.632 315.492 79.0556C315.492 78.4792 315.021 78.012 314.439 78.012C313.857 78.012 313.386 78.4792 313.386 79.0556C313.386 79.632 313.857 80.0993 314.439 80.0993Z" fill="#D8D9DB"/>
<path d="M304.527 91.9718C304.527 91.9718 311.482 94.5103 322.199 94.2095C322.897 94.1932 323.589 94.3416 324.218 94.6425C324.218 94.6425 321.233 90.085 320.856 86.1701C320.856 86.1701 320.902 83.2715 324.177 84.0554C325.058 86.1333 326.075 88.152 327.222 90.0986C328.601 92.2452 332.079 96.151 332.189 102.627C332.189 102.627 331.964 104.55 334.894 108.096C337.824 111.642 350.758 129.389 362.694 133.997C362.694 133.997 370.141 137.775 371.268 151.921C372.394 166.068 358.494 160.457 356.788 159.241C356.788 159.241 344.953 150.481 333.942 131.795C322.93 113.109 323.542 114.759 318.896 113.524C318.896 113.524 309.237 109.778 305.36 101.333C301.482 92.8878 304.527 91.9718 304.527 91.9718Z" fill="url(#paint53_linear)"/>
<path d="M45.7525 337.193C45.7525 337.193 49.8186 345.214 45.7525 345.711C40.4952 346.358 28.8581 346.741 28.6603 344.991C28.1636 340.575 30.8544 335.484 35.7392 332.686C40.9919 329.637 45.7525 337.193 45.7525 337.193Z" fill="url(#paint54_linear)"/>
<path d="M68.9531 337.106C68.9531 337.106 64.0407 345.766 68.9531 345.624C73.8655 345.483 94.251 347.297 94.4396 345.551C94.8995 341.135 81.5606 335.356 77.0162 332.544C72.1406 329.514 68.9531 337.106 68.9531 337.106Z" fill="url(#paint55_linear)"/>
<path d="M69.344 336.327C69.344 336.327 77.7199 337.124 83.1107 335.871C83.1107 335.871 85.4105 278.547 86.9008 266.182C88.391 253.818 92.9723 194.926 91.1416 175.524L40.4124 179.02C40.4124 179.02 36.8201 232.079 36.8523 260.709C36.853 262.037 36.6908 263.361 36.3693 264.651C34.9343 270.375 30.8912 290.697 31.2592 336.573L45.8951 337.129C45.8951 337.129 51.6309 285.793 55.1818 267.75C58.7327 249.707 62.624 235.756 63.8843 217.713C63.8843 217.713 68.4471 254.524 66.4968 265.143C66.4352 265.444 66.3907 265.749 66.3634 266.055C66.0093 270.238 63.7417 300.769 69.344 336.327Z" fill="url(#paint56_linear)"/>
<path d="M92.733 196.826C92.733 196.826 75.4798 199.702 69.6751 196.826C69.1553 196.571 68.0882 188.987 68.0882 188.987C68.0882 188.987 66.5106 196.033 65.8574 195.97C56.6582 195.104 37.9193 198.107 37.9193 198.107C37.9193 198.107 42.036 178.733 42.6615 157.618C43.1721 140.363 37.625 108.151 37.9285 105.125C37.9285 105.125 55.6417 93.4758 67.7019 94.6835C79.7621 95.8913 94.1175 104.819 96.5599 109.664C96.5599 109.664 91.3025 136.59 91.5647 150.226C91.8269 163.862 93.3401 188.81 92.733 196.826Z" fill="url(#paint57_linear)"/>
<path d="M58.5074 79.2107C58.5074 79.2107 57.8542 90.5406 57.5507 93.7947C57.2471 97.0488 65.4896 106.556 65.4896 106.556L72.895 104.323L75.7928 95.2485C75.7928 95.2485 73.5803 89.9527 73.7321 84.9577C73.8839 79.9627 58.5074 79.2107 58.5074 79.2107Z" fill="url(#paint58_linear)"/>
<path d="M69.6108 104.027C69.6108 104.027 58.9627 90.2993 56.7871 90.2993L54.5378 96.8849C54.5378 96.8849 64.4592 108.224 64.7996 111.514C64.7996 111.514 67.6651 106.41 69.6108 105.047C69.6108 105.047 73.1617 106.182 74.7624 109.359C74.7624 109.359 78.8652 99.9931 80.4199 98.2066C80.4199 98.2066 79.0032 93.1341 75.4523 92.455C75.4523 92.455 70.1857 103.575 69.6108 104.027Z" fill="url(#paint59_linear)"/>
<path d="M80.4199 98.2067C80.4199 98.2067 75.5075 111.232 75.2223 114.126C75.2223 114.126 73.2767 108.68 70.1259 107.714C70.1259 107.714 65.4297 113.046 64.7444 116.168C64.7444 116.168 61.2211 105.002 54.5378 96.885C54.5378 96.885 62.4538 105.544 64.7996 111.515C64.7996 111.515 68.4793 105.33 69.6108 105.048C71.7949 105.825 73.6237 107.355 74.7624 109.359L80.4199 98.2067Z" fill="#E6D0DB"/>
<path d="M26.6688 149.852C26.6688 149.852 30.9373 152.299 41.5992 151.424C41.958 151.397 42.3167 151.37 42.6893 151.329C42.6893 151.329 47.5097 120.579 37.9287 105.106C37.9287 105.12 25.1831 111.628 26.6688 149.852Z" fill="url(#paint60_linear)"/>
<path d="M88.9614 132.848C91.597 137.045 97.0936 148.394 97.0936 148.394C98.257 148.274 99.406 148.044 100.525 147.705C108.629 145.295 113.698 138.066 113.698 138.066C106.141 120.593 96.56 109.659 96.56 109.659C89.7296 110.202 88.9614 132.848 88.9614 132.848Z" fill="url(#paint61_linear)"/>
<path d="M53.2131 72.0235C53.2131 72.0235 55.2462 87.4917 64.8364 90.5407C70.2087 92.2497 74.1598 92.2999 77.3703 86.922C78.8374 84.4051 79.6558 81.5687 79.7529 78.6638C80.0519 71.9916 79.0676 68.8378 79.6656 64.9913C80.3601 60.5113 81.6112 57.9591 81.6112 57.9591C81.6112 57.9591 69.1554 53.0689 57.9001 62.4482C56.548 63.5447 55.4364 64.9036 54.6336 66.4413C53.8307 67.9789 53.3536 69.663 53.2315 71.39C53.2131 71.5997 53.2131 71.8139 53.2131 72.0235Z" fill="url(#paint62_linear)"/>
<path d="M79.6195 71.0073C79.1871 66.705 79.7943 64.2166 79.7943 64.2166C79.7943 62.8494 78.925 61.9698 77.6739 61.4183C77.2415 61.4183 76.5148 61.4183 75.7512 61.4183C75.7512 61.4183 76.2848 62.7218 78.051 62.4255C78.051 62.4255 76.6113 63.1183 75.3511 62.7172C74.3023 62.3845 73.3548 61.2178 72.5499 60.5934C71.5569 60.5976 70.5649 60.657 69.5785 60.7712C62.7251 61.5824 61.2992 64.522 61.2992 64.6769C61.1658 69.8087 59.0638 68.5599 58.1715 71.5633C57.2792 74.5667 56.856 76.5766 56.856 76.5766L56.442 74.0198C54.8184 71.0711 53.3879 74.4756 53.3879 74.4756C53.3879 74.4756 56.1936 83.226 58.1255 85.2632L57.8127 90.4405C57.8127 90.4405 46.562 80.1633 48.3559 64.7544C48.6939 62.4239 49.5044 60.1853 50.7385 58.1734C51.0935 57.6382 51.5691 57.1921 52.1279 56.8702C52.6866 56.5483 53.3132 56.3594 53.9582 56.3185C56.2074 56.159 60.8577 57.1707 64.9973 55.129C70.3283 52.4856 82.0711 54.3496 82.3333 60.0556C82.6506 66.8053 79.6609 71.4631 79.6195 71.0073Z" fill="#473765"/>
<path d="M72.7523 74.325L73.8194 78.0621L70.2915 79.402L73.1249 77.7157L72.7523 74.325Z" fill="#F59B91"/>
<path d="M66.0784 71.7868C66.7134 71.7868 67.2283 71.2767 67.2283 70.6474C67.2283 70.0182 66.7134 69.5081 66.0784 69.5081C65.4433 69.5081 64.9285 70.0182 64.9285 70.6474C64.9285 71.2767 65.4433 71.7868 66.0784 71.7868Z" fill="#493764"/>
<path d="M75.7927 71.6362C76.4278 71.6362 76.9426 71.1261 76.9426 70.4968C76.9426 69.8675 76.4278 69.3574 75.7927 69.3574C75.1577 69.3574 74.6428 69.8675 74.6428 70.4968C74.6428 71.1261 75.1577 71.6362 75.7927 71.6362Z" fill="#493764"/>
<path d="M67.55 67.425C65.4745 67.1514 63.3654 67.5511 61.5383 68.5644C63.2586 65.7205 67.7938 66.3403 67.7938 66.3403C67.7938 66.3403 68.6539 67.0923 67.55 67.425Z" fill="#453764"/>
<path d="M74.2653 66.0443C74.2653 66.0443 78.6488 65.5293 79.2237 67.562C79.2237 67.562 78.152 66.6505 74.2653 67.0333C72.6785 66.7735 74.2653 66.0443 74.2653 66.0443Z" fill="#453764"/>
<path d="M74.0584 83.153C74.0584 83.153 70.4477 84.976 67.6189 82.2871C67.6281 82.2871 69.1506 88.3668 74.0584 83.153Z" fill="#CA537D"/>
<path d="M56.4557 73.4412C56.4557 75.2642 56.1108 78.5137 54.2571 78.5137C52.4035 78.5137 49.9795 75.3235 49.9795 73.5005C49.9795 71.6775 50.5958 69.2483 53.8478 69.2483C55.7014 69.2392 56.4557 71.6 56.4557 73.4412Z" fill="url(#paint63_linear)"/>
<path d="M79.2238 52.1939C79.2238 52.1939 81.128 52.3671 84.9917 51.2824C84.9917 51.2824 84.6605 57.4077 75.5809 58.9937C66.5012 60.5797 54.4226 60.9489 52.5828 57.3894C52.1458 56.5372 51.8009 52.121 57.854 50.9588C62.6146 50.0473 65.0754 50.421 68.0329 50.4074C71.2894 50.4074 77.9865 50.7993 81.0176 49.4685C80.936 50.0245 80.7332 50.5562 80.4235 51.0269C80.1137 51.4975 79.7044 51.8957 79.2238 52.1939V52.1939Z" fill="#473765"/>
<path d="M100.525 147.706C102.885 152.477 104.881 155.654 104.881 155.654C104.881 155.654 121.37 158.037 120.91 154.633C120.45 151.228 113.698 138.066 113.698 138.066C113.698 138.066 108.629 145.295 100.525 147.706Z" fill="url(#paint64_linear)"/>
<path d="M139.65 86.0737L0.00512695 268.695L3.57963 271.379L143.224 88.7572L139.65 86.0737Z" fill="#554359"/>
<path d="M144.286 92.2727L158.678 75.5375L151.148 69.1843L136.756 85.924C135.908 86.9112 135.49 88.1915 135.595 89.4837C135.699 90.7758 136.317 91.974 137.313 92.815V92.815C137.806 93.2343 138.378 93.553 138.996 93.7528C139.613 93.9526 140.265 94.0294 140.913 93.9791C141.561 93.9287 142.192 93.752 142.771 93.4591C143.35 93.1663 143.865 92.7631 144.286 92.2727V92.2727Z" fill="#392F37"/>
<path d="M180.397 66.5637L177.177 66.4179L176.023 62.1247L172.472 62.8722L172.688 58.1871L167.044 57.9273L166.585 54.737L161.093 54.4864L161.507 49.2316L156.645 47.1579L156.861 42.5366L151.875 42.295L151.976 40.1257L146.227 38.7994C146.227 38.7994 144.134 31.2841 142.179 30.5959C140.224 29.9077 135.16 33.6039 135.16 33.6039L128.863 34.2237L129.291 38.1842L123.541 40.1895L125.064 43.5939L120.579 44.7515L123.385 46.8161L122.074 55.2703L124.779 56.3002L123.169 61.3773L127.446 61.4229L128.233 64.1711L131.453 64.3169L131.407 68.7286L134.916 68.8881L134.948 71.4631L138.393 70.0958L138.196 74.3252L141.116 73.5504L140.988 76.2849L143.582 76.4034L143.246 80.3274L146.282 79.4159L146.02 85.008L149.239 82.7657L150.072 87.8473L153.365 86.1018L152.418 89.9984L156.019 88.1162L155.762 93.6946L158.439 91.9399V95.1302L163.185 91.5161L161.98 97.6687L167.5 97.0124L167.431 101.707L170.181 98.8081L174.05 104.277L175.296 100.549L181.506 101.743L180.186 97.2905L185.747 99.3596L185.907 95.8867L190.047 95.2259L187.747 92.186L192.347 92.2407L188.957 89.5883L195.493 87.0862L190.521 85.4956L192.094 81.3255L189.04 81.1888L191.662 77.3878L187.016 77.0688C187.016 77.0688 187.476 72.5113 187.016 72.4794C186.556 72.4475 182.159 72.8622 182.159 72.8622L180.397 66.5637Z" fill="#534753"/>
<path d="M178.691 86.7808L181.487 86.9084L181.676 82.8294L178.944 81.3391L179.095 78.0167L176.846 77.1553L176.98 74.2841L174.68 74.1793L174.809 71.4448L172.969 71.3627L173.075 69.084L169.855 68.9381L168.802 65.2557L166.207 65.1372L166.286 63.4737L163.848 63.3643L163.981 60.4931L160.761 60.3472L160.867 58.0685L158.429 57.9591L158.549 55.3887L154.014 54.2721L155.785 52.3853L150.973 50.6489L151.052 48.9854L148.292 48.8623L147.777 45.353L145.403 45.2482L143.494 41.9805C141.904 41.6529 140.25 41.8183 138.757 42.4543C137.264 43.0903 136.005 44.166 135.151 45.5353C132.018 50.3891 133.269 49.8422 133.269 49.8422L129.723 50.4347L132.653 53.1464L130.615 57.5945C130.615 57.5945 132.878 58.1505 133.49 58.1824C134.102 58.2143 133.177 61.6507 133.177 61.6507L136.926 63.2139L136.466 66.1945L140.114 66.6503L140.873 70.0137H144.092L143.55 71.8094L146.47 73.3042L148.467 77.7888L153.356 77.8617L154.901 82.957L158.048 82.164L157.62 84.7208L159.92 84.821L159.956 87.2502L161.939 87.3368L163.724 88.4032L166.023 88.508L165.315 90.5225L168.535 90.6683L170.2 94.287L171.258 91.2471L174.726 92.3136L174.85 89.5791L178.925 90.6774L178.691 86.7808Z" fill="#392F37"/>
<path d="M26.6687 149.852C26.6687 149.852 26.8941 166.875 27.354 171.751C27.814 176.628 34.2259 185.369 44.759 200.687C47.2577 204.474 50.7932 207.477 54.9518 209.346C57.2516 210.33 60.8255 203.257 61.3912 201.553C61.957 199.848 56.7318 194.972 56.7318 194.972C56.7318 194.972 61.0601 196.562 62.5135 194.06C62.5135 194.06 61.6718 192.164 56.1017 190.537C56.1017 190.537 57.0722 190.236 49.0596 190.182C49.0596 190.182 40.1272 171.177 40.0674 167.49C40.0214 164.637 41.1069 155.444 41.5991 151.416C30.9371 152.313 26.6687 149.852 26.6687 149.852Z" fill="url(#paint65_linear)"/>
<path d="M121.416 154.619C121.416 154.619 120.616 164.833 110.083 165.061C99.5497 165.288 98.8597 164.719 97.3694 165.061C95.8792 165.402 88.322 167.216 86.4913 160.959C84.6607 154.701 81.9193 151.224 87.6366 153.357C92.9584 155.349 95.2168 151.566 95.2168 151.566C96.3023 150.148 98.1146 147.742 98.1146 147.742C100.534 149.775 101.054 152.678 102.76 153.134C104.467 153.589 106.532 146.662 113.519 147.797C120.506 148.932 121.416 154.619 121.416 154.619Z" fill="url(#paint66_linear)"/>
<path d="M70.3604 112.307C70.3604 112.307 73.0235 124.043 70.7697 141.32L70.3604 112.307Z" fill="#E6D0DB"/>
<path d="M69.2061 157.841C69.2061 157.841 67.0581 173.123 67.2374 182.452C67.2374 182.452 67.403 175.315 68.6587 169.65C69.9144 163.985 69.5189 158.461 69.2061 157.841Z" fill="#E6D0DB"/>
</g>
<defs>
<linearGradient id="paint0_linear" x1="315.35" y1="92.4547" x2="210.365" y2="94.4462" gradientUnits="userSpaceOnUse">
<stop stop-color="#F86998"/>
<stop offset="0.65" stop-color="#FA9199"/>
<stop offset="1" stop-color="#FBA99A"/>
</linearGradient>
<linearGradient id="paint1_linear" x1="5483.69" y1="-17786.3" x2="6828.53" y2="-18122.1" gradientUnits="userSpaceOnUse">
<stop stop-color="#F86998"/>
<stop offset="0.65" stop-color="#FA9199"/>
<stop offset="1" stop-color="#FBA99A"/>
</linearGradient>
<linearGradient id="paint2_linear" x1="13587.8" y1="-27341" x2="14932.3" y2="-27676.8" gradientUnits="userSpaceOnUse">
<stop stop-color="#F86998"/>
<stop offset="0.65" stop-color="#FA9199"/>
<stop offset="1" stop-color="#FBA99A"/>
</linearGradient>
<linearGradient id="paint3_linear" x1="15696.4" y1="10177.7" x2="16887.6" y2="9528.81" gradientUnits="userSpaceOnUse">
<stop stop-color="#F86998"/>
<stop offset="0.65" stop-color="#FA9199"/>
<stop offset="1" stop-color="#FBA99A"/>
</linearGradient>
<linearGradient id="paint4_linear" x1="22917.8" y1="7510.22" x2="24108.5" y2="6861.58" gradientUnits="userSpaceOnUse">
<stop stop-color="#F86998"/>
<stop offset="0.65" stop-color="#FA9199"/>
<stop offset="1" stop-color="#FBA99A"/>
</linearGradient>
<linearGradient id="paint5_linear" x1="1875.91" y1="-14702.4" x2="2206.31" y2="-15004.4" gradientUnits="userSpaceOnUse">
<stop stop-color="#F86998"/>
<stop offset="0.65" stop-color="#FA9199"/>
<stop offset="1" stop-color="#FBA99A"/>
</linearGradient>
<linearGradient id="paint6_linear" x1="-3046.42" y1="4961.52" x2="-2485.98" y2="5280.09" gradientUnits="userSpaceOnUse">
<stop stop-color="#F86998"/>
<stop offset="0.65" stop-color="#FA9199"/>
<stop offset="1" stop-color="#FBA99A"/>
</linearGradient>
<linearGradient id="paint7_linear" x1="1010.42" y1="2150" x2="1657.52" y2="2003.39" gradientUnits="userSpaceOnUse">
<stop stop-color="#F86998"/>
<stop offset="0.65" stop-color="#FA9199"/>
<stop offset="1" stop-color="#FBA99A"/>
</linearGradient>
<linearGradient id="paint8_linear" x1="6795.7" y1="7168.94" x2="8782.33" y2="7168.94" gradientUnits="userSpaceOnUse">
<stop stop-color="#F86998"/>
<stop offset="0.65" stop-color="#FA9199"/>
<stop offset="1" stop-color="#FBA99A"/>
</linearGradient>
<linearGradient id="paint9_linear" x1="14860.2" y1="2406.71" x2="15839.8" y2="904.996" gradientUnits="userSpaceOnUse">
<stop stop-color="#F86998"/>
<stop offset="0.65" stop-color="#FA9199"/>
<stop offset="1" stop-color="#FBA99A"/>
</linearGradient>
<radialGradient id="paint10_radial" cx="0" cy="0" r="1" gradientUnits="userSpaceOnUse" gradientTransform="translate(7362.95 741.553) scale(140.196 138.912)">
<stop stop-color="#F86998"/>
<stop offset="0.65" stop-color="#FA9199"/>
<stop offset="1" stop-color="#FBA99A"/>
</radialGradient>
<linearGradient id="paint11_linear" x1="257.537" y1="13.2182" x2="274.064" y2="13.2182" gradientUnits="userSpaceOnUse">
<stop stop-color="#C4CCD7"/>
<stop offset="0.85" stop-color="#ECF0F3"/>
<stop offset="1" stop-color="#F4F7F9"/>
</linearGradient>
<radialGradient id="paint12_radial" cx="0" cy="0" r="1" gradientUnits="userSpaceOnUse" gradientTransform="translate(5385.21 597.586) scale(81.8043 81.0551)">
<stop stop-color="#F86998"/>
<stop offset="0.65" stop-color="#FA9199"/>
<stop offset="1" stop-color="#FBA99A"/>
</radialGradient>
<linearGradient id="paint13_linear" x1="8133.42" y1="932.638" x2="8539.01" y2="932.638" gradientUnits="userSpaceOnUse">
<stop stop-color="#C4CCD7"/>
<stop offset="0.85" stop-color="#ECF0F3"/>
<stop offset="1" stop-color="#F4F7F9"/>
</linearGradient>
<linearGradient id="paint14_linear" x1="3497.95" y1="42376.3" x2="5033.46" y2="39418.7" gradientUnits="userSpaceOnUse">
<stop stop-color="#F86998"/>
<stop offset="0.65" stop-color="#FA9199"/>
<stop offset="1" stop-color="#FBA99A"/>
</linearGradient>
<linearGradient id="paint15_linear" x1="5000.91" y1="43896.8" x2="6077.69" y2="37793.6" gradientUnits="userSpaceOnUse">
<stop stop-color="#F86998"/>
<stop offset="0.65" stop-color="#FA9199"/>
<stop offset="1" stop-color="#FBA99A"/>
</linearGradient>
<linearGradient id="paint16_linear" x1="11402.6" y1="20821.2" x2="12963.5" y2="19922.4" gradientUnits="userSpaceOnUse">
<stop stop-color="#F86998"/>
<stop offset="0.65" stop-color="#FA9199"/>
<stop offset="1" stop-color="#FBA99A"/>
</linearGradient>
<linearGradient id="paint17_linear" x1="5706.86" y1="8206.9" x2="5761.68" y2="7180.37" gradientUnits="userSpaceOnUse">
<stop stop-color="#F86998"/>
<stop offset="0.65" stop-color="#FA9199"/>
<stop offset="1" stop-color="#FBA99A"/>
</linearGradient>
<linearGradient id="paint18_linear" x1="7737.65" y1="20653.2" x2="6439.24" y2="19988.9" gradientUnits="userSpaceOnUse">
<stop stop-color="#F86998"/>
<stop offset="0.65" stop-color="#FA9199"/>
<stop offset="1" stop-color="#FBA99A"/>
</linearGradient>
<linearGradient id="paint19_linear" x1="2906.79" y1="8245.88" x2="3069.48" y2="7239.44" gradientUnits="userSpaceOnUse">
<stop stop-color="#F86998"/>
<stop offset="0.65" stop-color="#FA9199"/>
<stop offset="1" stop-color="#FBA99A"/>
</linearGradient>
<linearGradient id="paint20_linear" x1="30304.3" y1="61475.2" x2="18985.6" y2="50567.5" gradientUnits="userSpaceOnUse">
<stop stop-color="#C4CCD7"/>
<stop offset="0.85" stop-color="#ECF0F3"/>
<stop offset="1" stop-color="#F4F7F9"/>
</linearGradient>
<linearGradient id="paint21_linear" x1="7338.71" y1="-3712.92" x2="12205.6" y2="-431.602" gradientUnits="userSpaceOnUse">
<stop stop-color="#C4CCD7"/>
<stop offset="0.85" stop-color="#ECF0F3"/>
<stop offset="1" stop-color="#F4F7F9"/>
</linearGradient>
<linearGradient id="paint22_linear" x1="186.349" y1="220.58" x2="237.239" y2="220.58" gradientUnits="userSpaceOnUse">
<stop stop-color="#FFDFD2"/>
<stop offset="0.98" stop-color="#FFB7BA"/>
<stop offset="1" stop-color="#FFB6B9"/>
</linearGradient>
<linearGradient id="paint23_linear" x1="19404.3" y1="16363.7" x2="16494.6" y2="14803.9" gradientUnits="userSpaceOnUse">
<stop stop-color="#C4CCD7"/>
<stop offset="0.85" stop-color="#ECF0F3"/>
<stop offset="1" stop-color="#F4F7F9"/>
</linearGradient>
<linearGradient id="paint24_linear" x1="9088.9" y1="7970.51" x2="9729.55" y2="7853.71" gradientUnits="userSpaceOnUse">
<stop stop-color="#FFDFD2"/>
<stop offset="0.98" stop-color="#FFB7BA"/>
<stop offset="1" stop-color="#FFB6B9"/>
</linearGradient>
<linearGradient id="paint25_linear" x1="13291.1" y1="25329.4" x2="17110.3" y2="25329.4" gradientUnits="userSpaceOnUse">
<stop stop-color="#FFDFD2"/>
<stop offset="0.98" stop-color="#FFB7BA"/>
<stop offset="1" stop-color="#FFB6B9"/>
</linearGradient>
<linearGradient id="paint26_linear" x1="10226.4" y1="14040.9" x2="13239" y2="14276.2" gradientUnits="userSpaceOnUse">
<stop stop-color="#FFDFD2"/>
<stop offset="0.98" stop-color="#FFB7BA"/>
<stop offset="1" stop-color="#FFB6B9"/>
</linearGradient>
<linearGradient id="paint27_linear" x1="2937.89" y1="2651.92" x2="2543.39" y2="2708.84" gradientUnits="userSpaceOnUse">
<stop stop-color="#FFDFD2"/>
<stop offset="0.98" stop-color="#FFB7BA"/>
<stop offset="1" stop-color="#FFB6B9"/>
</linearGradient>
<linearGradient id="paint28_linear" x1="8948.38" y1="22480" x2="7714.51" y2="27613.8" gradientUnits="userSpaceOnUse">
<stop stop-color="#FFDFD2"/>
<stop offset="0.98" stop-color="#FFB7BA"/>
<stop offset="1" stop-color="#FFB6B9"/>
</linearGradient>
<linearGradient id="paint29_linear" x1="206.477" y1="298.153" x2="71.1086" y2="142.538" gradientUnits="userSpaceOnUse">
<stop stop-color="#004A7D"/>
<stop offset="0.83" stop-color="#0967A5"/>
<stop offset="1" stop-color="#0B6EAE"/>
</linearGradient>
<linearGradient id="paint30_linear" x1="11614.3" y1="11501" x2="7487.54" y2="11435.2" gradientUnits="userSpaceOnUse">
<stop stop-color="#C4CCD7"/>
<stop offset="0.85" stop-color="#ECF0F3"/>
<stop offset="1" stop-color="#F4F7F9"/>
</linearGradient>
<linearGradient id="paint31_linear" x1="22312.3" y1="66834.4" x2="8920.85" y2="67187.4" gradientUnits="userSpaceOnUse">
<stop stop-color="#004A7D"/>
<stop offset="0.83" stop-color="#0967A5"/>
<stop offset="1" stop-color="#0B6EAE"/>
</linearGradient>
<linearGradient id="paint32_linear" x1="10311.6" y1="15209.1" x2="10364.6" y2="16416.7" gradientUnits="userSpaceOnUse">
<stop stop-color="#FFDFD2"/>
<stop offset="0.98" stop-color="#FFB7BA"/>
<stop offset="1" stop-color="#FFB6B9"/>
</linearGradient>
<linearGradient id="paint33_linear" x1="15870.7" y1="9860.68" x2="13571.3" y2="8467.54" gradientUnits="userSpaceOnUse">
<stop stop-color="#C4CCD7"/>
<stop offset="0.85" stop-color="#ECF0F3"/>
<stop offset="1" stop-color="#F4F7F9"/>
</linearGradient>
<linearGradient id="paint34_linear" x1="125.644" y1="298.573" x2="154.193" y2="298.573" gradientUnits="userSpaceOnUse">
<stop stop-color="#0B6EAE"/>
<stop offset="1" stop-color="#004A7D"/>
</linearGradient>
<linearGradient id="paint35_linear" x1="28133.2" y1="153710" x2="71635" y2="137051" gradientUnits="userSpaceOnUse">
<stop stop-color="#004A7D"/>
<stop offset="0.83" stop-color="#0967A5"/>
<stop offset="1" stop-color="#0B6EAE"/>
</linearGradient>
<linearGradient id="paint36_linear" x1="63426.1" y1="144986" x2="37055.9" y2="137647" gradientUnits="userSpaceOnUse">
<stop stop-color="#004A7D"/>
<stop offset="0.83" stop-color="#0967A5"/>
<stop offset="1" stop-color="#0B6EAE"/>
</linearGradient>
<linearGradient id="paint37_linear" x1="37294.5" y1="20033.8" x2="37300.9" y2="18255.9" gradientUnits="userSpaceOnUse">
<stop stop-color="#C4CCD7"/>
<stop offset="0.85" stop-color="#ECF0F3"/>
<stop offset="1" stop-color="#F4F7F9"/>
</linearGradient>
<linearGradient id="paint38_linear" x1="29493.4" y1="21845.3" x2="29732.3" y2="20298.8" gradientUnits="userSpaceOnUse">
<stop stop-color="#C4CCD7"/>
<stop offset="0.85" stop-color="#ECF0F3"/>
<stop offset="1" stop-color="#F4F7F9"/>
</linearGradient>
<linearGradient id="paint39_linear" x1="49768" y1="74451.4" x2="67008.2" y2="64044" gradientUnits="userSpaceOnUse">
<stop stop-color="#C4CCD7"/>
<stop offset="0.85" stop-color="#ECF0F3"/>
<stop offset="1" stop-color="#F4F7F9"/>
</linearGradient>
<linearGradient id="paint40_linear" x1="37867.1" y1="27780.2" x2="34173.4" y2="19519" gradientUnits="userSpaceOnUse">
<stop stop-color="#C4CCD7"/>
<stop offset="0.85" stop-color="#ECF0F3"/>
<stop offset="1" stop-color="#F4F7F9"/>
</linearGradient>
<linearGradient id="paint41_linear" x1="27263.8" y1="26015.4" x2="33277.6" y2="22827.7" gradientUnits="userSpaceOnUse">
<stop stop-color="#C4CCD7"/>
<stop offset="0.85" stop-color="#ECF0F3"/>
<stop offset="1" stop-color="#F4F7F9"/>
</linearGradient>
<linearGradient id="paint42_linear" x1="16843.1" y1="5647.69" x2="16859" y2="5401.59" gradientUnits="userSpaceOnUse">
<stop stop-color="#FFDFD2"/>
<stop offset="0.98" stop-color="#FFB7BA"/>
<stop offset="1" stop-color="#FFB6B9"/>
</linearGradient>
<linearGradient id="paint43_linear" x1="29357.6" y1="20528.8" x2="37309.3" y2="22784.2" gradientUnits="userSpaceOnUse">
<stop stop-color="#FFDFD2"/>
<stop offset="0.98" stop-color="#FFB7BA"/>
<stop offset="1" stop-color="#FFB6B9"/>
</linearGradient>
<linearGradient id="paint44_linear" x1="8816.71" y1="2498.92" x2="10821.5" y2="2396.04" gradientUnits="userSpaceOnUse">
<stop stop-color="#FFDFD2"/>
<stop offset="0.98" stop-color="#FFB7BA"/>
<stop offset="1" stop-color="#FFB6B9"/>
</linearGradient>
<linearGradient id="paint45_linear" x1="9162.86" y1="2512.16" x2="10225.9" y2="2474.3" gradientUnits="userSpaceOnUse">
<stop stop-color="#FFDFD2"/>
<stop offset="0.98" stop-color="#FFB7BA"/>
<stop offset="1" stop-color="#FFB6B9"/>
</linearGradient>
<linearGradient id="paint46_linear" x1="28017.6" y1="10096.6" x2="31099.8" y2="10096.6" gradientUnits="userSpaceOnUse">
<stop stop-color="#FFDFD2"/>
<stop offset="0.98" stop-color="#FFB7BA"/>
<stop offset="1" stop-color="#FFB6B9"/>
</linearGradient>
<linearGradient id="paint47_linear" x1="317.779" y1="90.6086" x2="341.394" y2="69.9714" gradientUnits="userSpaceOnUse">
<stop stop-color="#B2B3B7"/>
<stop offset="0.41" stop-color="#D9DBDB"/>
<stop offset="0.52" stop-color="#E5E7E6"/>
<stop offset="1" stop-color="#B5B6BA"/>
</linearGradient>
<linearGradient id="paint48_linear" x1="313.726" y1="105.238" x2="312.493" y2="59.9773" gradientUnits="userSpaceOnUse">
<stop stop-color="#B2B3B7"/>
<stop offset="0.5" stop-color="#D9DBDB"/>
<stop offset="0.62" stop-color="#E3E5E4"/>
<stop offset="1" stop-color="#B6B7BA"/>
</linearGradient>
<linearGradient id="paint49_linear" x1="10099" y1="5257.14" x2="11113.9" y2="4443.65" gradientUnits="userSpaceOnUse">
<stop stop-color="#B2B3B7"/>
<stop offset="0.5" stop-color="#D9DBDB"/>
<stop offset="0.62" stop-color="#E3E5E4"/>
<stop offset="1" stop-color="#B6B7BA"/>
</linearGradient>
<linearGradient id="paint50_linear" x1="5274.59" y1="441.182" x2="5396.65" y2="441.182" gradientUnits="userSpaceOnUse">
<stop stop-color="#B2B3B7"/>
<stop offset="0.5" stop-color="#D9DBDB"/>
<stop offset="0.62" stop-color="#E3E5E4"/>
<stop offset="1" stop-color="#B6B7BA"/>
</linearGradient>
<linearGradient id="paint51_linear" x1="5129.39" y1="359.85" x2="5129.37" y2="378.85" gradientUnits="userSpaceOnUse">
<stop stop-color="#B2B3B7"/>
<stop offset="0.5" stop-color="#D9DBDB"/>
<stop offset="0.62" stop-color="#E3E5E4"/>
<stop offset="1" stop-color="#B6B7BA"/>
</linearGradient>
<linearGradient id="paint52_linear" x1="11604.3" y1="3092.11" x2="11281.7" y2="2638.72" gradientUnits="userSpaceOnUse">
<stop stop-color="#B2B3B7"/>
<stop offset="0.5" stop-color="#D9DBDB"/>
<stop offset="0.62" stop-color="#E3E5E4"/>
<stop offset="1" stop-color="#B6B7BA"/>
</linearGradient>
<linearGradient id="paint53_linear" x1="54470.9" y1="15041.4" x2="50013.5" y2="42508.6" gradientUnits="userSpaceOnUse">
<stop stop-color="#FFDFD2"/>
<stop offset="0.98" stop-color="#FFB7BA"/>
<stop offset="1" stop-color="#FFB6B9"/>
</linearGradient>
<linearGradient id="paint54_linear" x1="1637.18" y1="11489.3" x2="2914.88" y2="11476.5" gradientUnits="userSpaceOnUse">
<stop stop-color="#C4CCD7"/>
<stop offset="0.85" stop-color="#ECF0F3"/>
<stop offset="1" stop-color="#F4F7F9"/>
</linearGradient>
<linearGradient id="paint55_linear" x1="4835.72" y1="11638.7" x2="6616.44" y2="11611.8" gradientUnits="userSpaceOnUse">
<stop stop-color="#C4CCD7"/>
<stop offset="0.85" stop-color="#ECF0F3"/>
<stop offset="1" stop-color="#F4F7F9"/>
</linearGradient>
<linearGradient id="paint56_linear" x1="25860.5" y1="96913.6" x2="17946.8" y2="96913.6" gradientUnits="userSpaceOnUse">
<stop stop-color="#004A7D"/>
<stop offset="0.83" stop-color="#0967A5"/>
<stop offset="1" stop-color="#0B6EAE"/>
</linearGradient>
<linearGradient id="paint57_linear" x1="13741.1" y1="64328.5" x2="8426.23" y2="45841.9" gradientUnits="userSpaceOnUse">
<stop stop-color="#C4CCD7"/>
<stop offset="0.85" stop-color="#ECF0F3"/>
<stop offset="1" stop-color="#F4F7F9"/>
</linearGradient>
<linearGradient id="paint58_linear" x1="75.365" y1="104.833" x2="68.8727" y2="94.6564" gradientUnits="userSpaceOnUse">
<stop stop-color="#FFDFD2"/>
<stop offset="0.36" stop-color="#FFDCD0"/>
<stop offset="0.63" stop-color="#FFD2CA"/>
<stop offset="0.87" stop-color="#FFC2C0"/>
<stop offset="1" stop-color="#FFB6B9"/>
</linearGradient>
<linearGradient id="paint59_linear" x1="5360.88" y1="7102.76" x2="5241.73" y2="6041.74" gradientUnits="userSpaceOnUse">
<stop stop-color="#C4CCD7"/>
<stop offset="0.85" stop-color="#ECF0F3"/>
<stop offset="1" stop-color="#F4F7F9"/>
</linearGradient>
<linearGradient id="paint60_linear" x1="1202.77" y1="23254.9" x2="4878.26" y2="19352.3" gradientUnits="userSpaceOnUse">
<stop stop-color="#C4CCD7"/>
<stop offset="0.85" stop-color="#ECF0F3"/>
<stop offset="1" stop-color="#F4F7F9"/>
</linearGradient>
<linearGradient id="paint61_linear" x1="9081.76" y1="13200.3" x2="7113.87" y2="12978.5" gradientUnits="userSpaceOnUse">
<stop stop-color="#C4CCD7"/>
<stop offset="0.85" stop-color="#ECF0F3"/>
<stop offset="1" stop-color="#F4F7F9"/>
</linearGradient>
<linearGradient id="paint62_linear" x1="151415" y1="7523.31" x2="154487" y2="5842.64" gradientUnits="userSpaceOnUse">
<stop stop-color="#FFDFD2"/>
<stop offset="0.36" stop-color="#FFDCD0"/>
<stop offset="0.63" stop-color="#FFD2CA"/>
<stop offset="0.87" stop-color="#FFC2C0"/>
<stop offset="1" stop-color="#FFB6B9"/>
</linearGradient>
<linearGradient id="paint63_linear" x1="32674.3" y1="1949.86" x2="32580.1" y2="1895.31" gradientUnits="userSpaceOnUse">
<stop stop-color="#FFDFD2"/>
<stop offset="0.98" stop-color="#FFB7BA"/>
<stop offset="1" stop-color="#FFB6B9"/>
</linearGradient>
<linearGradient id="paint64_linear" x1="9868.66" y1="6749.06" x2="8964.35" y2="6749.06" gradientUnits="userSpaceOnUse">
<stop stop-color="#FFDFD2"/>
<stop offset="0.98" stop-color="#FFB7BA"/>
<stop offset="1" stop-color="#FFB6B9"/>
</linearGradient>
<linearGradient id="paint65_linear" x1="13040" y1="25796.2" x2="10246.9" y2="25796.2" gradientUnits="userSpaceOnUse">
<stop stop-color="#FFDFD2"/>
<stop offset="0.98" stop-color="#FFB7BA"/>
<stop offset="1" stop-color="#FFB6B9"/>
</linearGradient>
<linearGradient id="paint66_linear" x1="18252" y1="6945.52" x2="15241.1" y2="6945.52" gradientUnits="userSpaceOnUse">
<stop stop-color="#FFDFD2"/>
<stop offset="0.98" stop-color="#FFB7BA"/>
<stop offset="1" stop-color="#FFB6B9"/>
</linearGradient>
<clipPath id="clip0">
<rect width="430" height="381.8" fill="white" transform="translate(0 0.735107)"/>
</clipPath>
</defs>
</svg>
