<svg width="60" height="60" viewBox="0 0 60 60" fill="none" xmlns="http://www.w3.org/2000/svg">
<path d="M38.75 31.25L23.925 31.25L28.4625 36.7C28.6747 36.9553 28.7768 37.2844 28.7463 37.6149C28.7158 37.9455 28.5553 38.2503 28.3 38.4625C28.0447 38.6747 27.7156 38.7768 27.3851 38.7463C27.0546 38.7158 26.7497 38.5553 26.5375 38.3L20.2875 30.8C20.2455 30.7404 20.2079 30.6777 20.175 30.6125C20.175 30.55 20.175 30.5125 20.0875 30.45C20.0308 30.3067 20.0012 30.1541 20 30C20.0012 29.8459 20.0308 29.6933 20.0875 29.55C20.0875 29.4875 20.0875 29.45 20.175 29.3875C20.2079 29.3223 20.2455 29.2597 20.2875 29.2L26.5375 21.7C26.655 21.5589 26.8022 21.4454 26.9686 21.3677C27.1349 21.2899 27.3164 21.2497 27.5 21.25C27.7921 21.2495 28.0751 21.3512 28.3 21.5375C28.4266 21.6425 28.5312 21.7713 28.6079 21.9168C28.6846 22.0622 28.7318 22.2213 28.7469 22.3851C28.762 22.5488 28.7447 22.7139 28.6959 22.8709C28.6471 23.0279 28.5678 23.1737 28.4625 23.3L23.925 28.75L38.75 28.75C39.0815 28.75 39.3995 28.8817 39.6339 29.1161C39.8683 29.3506 40 29.6685 40 30C40 30.3315 39.8683 30.6495 39.6339 30.8839C39.3995 31.1183 39.0815 31.25 38.75 31.25Z" fill="#1E538F"/>
<circle cx="30" cy="30" r="29" stroke="#1E538F" stroke-width="2"/>
</svg>
